{
  "response": {
    "status": "ok",
    "userTier": "developer",
    "total": 2144365,
    "startIndex": 191,
    "pageSize": 10,
    "currentPage": 20,
    "pages": 214437,
    "orderBy": "newest",
    "results": [
      {
        "id": "commentisfree/2019/oct/04/jennifer-arcuri-boris-johnson",
        "type": "article",
        "sectionId": "commentisfree",
        "sectionName": "Opinion",
        "webPublicationDate": "2019-10-04T13:17:56Z",
        "webTitle": "Jennifer Arcuri came late to the party. But the Johnson franchise is unthinkable without her now | Marina Hyde",
        "webUrl": "https://www.theguardian.com/commentisfree/2019/oct/04/jennifer-arcuri-boris-johnson",
        "apiUrl": "https://content.guardianapis.com/commentisfree/2019/oct/04/jennifer-arcuri-boris-johnson",
        "isHosted": false,
        "pillarId": "pillar/opinion",
        "pillarName": "Opinion"
      },
      {
        "id": "world/2019/oct/04/ukraine-to-review-legal-cases-amid-trump-claims-over-bidens",
        "type": "article",
        "sectionId": "world",
        "sectionName": "World news",
        "webPublicationDate": "2019-10-04T13:16:22Z",
        "webTitle": "Ukraine to review legal cases amid Trump claims over Bidens",
        "webUrl": "https://www.theguardian.com/world/2019/oct/04/ukraine-to-review-legal-cases-amid-trump-claims-over-bidens",
        "apiUrl": "https://content.guardianapis.com/world/2019/oct/04/ukraine-to-review-legal-cases-amid-trump-claims-over-bidens",
        "isHosted": false,
        "pillarId": "pillar/news",
        "pillarName": "News"
      },
      {
        "id": "media/2019/oct/04/bbc-appoints-june-sarpong-as-head-of-creative-diversity",
        "type": "article",
        "sectionId": "media",
        "sectionName": "Media",
        "webPublicationDate": "2019-10-04T13:15:10Z",
        "webTitle": "BBC appoints June Sarpong as head of creative diversity",
        "webUrl": "https://www.theguardian.com/media/2019/oct/04/bbc-appoints-june-sarpong-as-head-of-creative-diversity",
        "apiUrl": "https://content.guardianapis.com/media/2019/oct/04/bbc-appoints-june-sarpong-as-head-of-creative-diversity",
        "isHosted": false,
        "pillarId": "pillar/news",
        "pillarName": "News"
      },
      {
        "id": "stage/2019/oct/04/elf-lyons-funniest-things",
        "type": "article",
        "sectionId": "stage",
        "sectionName": "Stage",
        "webPublicationDate": "2019-10-04T13:00:16Z",
        "webTitle": "Elf Lyons: ‘I dreamed I married Stormzy and we remade Saw as a musical’",
        "webUrl": "https://www.theguardian.com/stage/2019/oct/04/elf-lyons-funniest-things",
        "apiUrl": "https://content.guardianapis.com/stage/2019/oct/04/elf-lyons-funniest-things",
        "isHosted": false,
        "pillarId": "pillar/arts",
        "pillarName": "Arts"
      },
      {
        "id": "lifeandstyle/2019/oct/04/flattery-will-get-you-nowhere-with-me-coco-khan",
        "type": "article",
        "sectionId": "lifeandstyle",
        "sectionName": "Life and style",
        "webPublicationDate": "2019-10-04T13:00:16Z",
        "webTitle": "Flattery? It will get you nowhere with me | Coco Khan",
        "webUrl": "https://www.theguardian.com/lifeandstyle/2019/oct/04/flattery-will-get-you-nowhere-with-me-coco-khan",
        "apiUrl": "https://content.guardianapis.com/lifeandstyle/2019/oct/04/flattery-will-get-you-nowhere-with-me-coco-khan",
        "isHosted": false,
        "pillarId": "pillar/lifestyle",
        "pillarName": "Lifestyle"
      },
      {
        "id": "food/2019/oct/04/improve-knowledge-wine-tasting-courses-new-vintage-fiona-beckett",
        "type": "article",
        "sectionId": "food",
        "sectionName": "Food",
        "webPublicationDate": "2019-10-04T13:00:15Z",
        "webTitle": "The best way to improve your wine knowledge",
        "webUrl": "https://www.theguardian.com/food/2019/oct/04/improve-knowledge-wine-tasting-courses-new-vintage-fiona-beckett",
        "apiUrl": "https://content.guardianapis.com/food/2019/oct/04/improve-knowledge-wine-tasting-courses-new-vintage-fiona-beckett",
        "isHosted": false,
        "pillarId": "pillar/lifestyle",
        "pillarName": "Lifestyle"
      },
      {
        "id": "sport/2019/oct/04/england-argentina-rugby-world-cup-prospects-in-balance",
        "type": "article",
        "sectionId": "sport",
        "sectionName": "Sport",
        "webPublicationDate": "2019-10-04T13:00:15Z",
        "webTitle": "England’s World Cup high-stakes games arrive with Argentina test | Robert Kitson",
        "webUrl": "https://www.theguardian.com/sport/2019/oct/04/england-argentina-rugby-world-cup-prospects-in-balance",
        "apiUrl": "https://content.guardianapis.com/sport/2019/oct/04/england-argentina-rugby-world-cup-prospects-in-balance",
        "isHosted": false,
        "pillarId": "pillar/sport",
        "pillarName": "Sport"
      },
      {
        "id": "film/2019/oct/04/martin-scorsese-says-marvel-movies-are-not-cinema",
        "type": "article",
        "sectionId": "film",
        "sectionName": "Film",
        "webPublicationDate": "2019-10-04T12:56:41Z",
        "webTitle": "Martin Scorsese says Marvel movies are 'not cinema'",
        "webUrl": "https://www.theguardian.com/film/2019/oct/04/martin-scorsese-says-marvel-movies-are-not-cinema",
        "apiUrl": "https://content.guardianapis.com/film/2019/oct/04/martin-scorsese-says-marvel-movies-are-not-cinema",
        "isHosted": false,
        "pillarId": "pillar/arts",
        "pillarName": "Arts"
      },
      {
        "id": "technology/2019/oct/04/facebook-exempts-political-ads-ban-making-false-claims",
        "type": "article",
        "sectionId": "technology",
        "sectionName": "Technology",
        "webPublicationDate": "2019-10-04T12:36:30Z",
        "webTitle": "Facebook exempts political ads from ban on making false claims",
        "webUrl": "https://www.theguardian.com/technology/2019/oct/04/facebook-exempts-political-ads-ban-making-false-claims",
        "apiUrl": "https://content.guardianapis.com/technology/2019/oct/04/facebook-exempts-political-ads-ban-making-false-claims",
        "isHosted": false,
        "pillarId": "pillar/news",
        "pillarName": "News"
      },
      {
        "id": "sport/live/2019/oct/04/south-africa-v-italy-rugby-world-cup-2019-live",
        "type": "liveblog",
        "sectionId": "sport",
        "sectionName": "Sport",
        "webPublicationDate": "2019-10-04T12:24:57Z",
        "webTitle": "South Africa 49-3 Italy: Rugby World Cup 2019 – as it happened",
        "webUrl": "https://www.theguardian.com/sport/live/2019/oct/04/south-africa-v-italy-rugby-world-cup-2019-live",
        "apiUrl": "https://content.guardianapis.com/sport/live/2019/oct/04/south-africa-v-italy-rugby-world-cup-2019-live",
        "isHosted": false,
        "pillarId": "pillar/sport",
        "pillarName": "Sport"
      }
    ]
  }
}
