{
  "response": {
    "status": "ok",
    "userTier": "developer",
    "total": 100583,
    "startIndex": 1,
    "pageSize": 10,
    "currentPage": 1,
    "pages": 10059,
    "orderBy": "newest",
    "results": [
      {
        "id": "politics/2019/mar/24/brexit-hammond-denies-plotting-to-oust-may-but-admits-deal-may-not-pass",
        "type": "article",
        "sectionId": "politics",
        "sectionName": "Politics",
        "webPublicationDate": "2019-03-24T10:15:21Z",
        "webTitle": "Brexit: Hammond denies plotting to oust May but admits deal may not pass",
        "webUrl": "https://www.theguardian.com/politics/2019/mar/24/brexit-hammond-denies-plotting-to-oust-may-but-admits-deal-may-not-pass",
        "apiUrl": "https://content.guardianapis.com/politics/2019/mar/24/brexit-hammond-denies-plotting-to-oust-may-but-admits-deal-may-not-pass",
        "isHosted": false,
        "pillarId": "pillar/news",
        "pillarName": "News"
      },
      {
        "id": "politics/2019/mar/24/sadiq-khan-challenges-theresa-may-tory-islamophobia",
        "type": "article",
        "sectionId": "politics",
        "sectionName": "Politics",
        "webPublicationDate": "2019-03-24T09:00:38Z",
        "webTitle": "Sadiq Khan challenges Theresa May to act against Tory Islamophobia",
        "webUrl": "https://www.theguardian.com/politics/2019/mar/24/sadiq-khan-challenges-theresa-may-tory-islamophobia",
        "apiUrl": "https://content.guardianapis.com/politics/2019/mar/24/sadiq-khan-challenges-theresa-may-tory-islamophobia",
        "isHosted": false,
        "pillarId": "pillar/news",
        "pillarName": "News"
      },
      {
        "id": "politics/2019/mar/23/brexit-eu-takes-back-control-brussels-corridor-viral-photo",
        "type": "article",
        "sectionId": "politics",
        "sectionName": "Politics",
        "webPublicationDate": "2019-03-24T09:00:00Z",
        "webTitle": "One telling image: in a Brussels corridor, the EU takes back control of Brexit",
        "webUrl": "https://www.theguardian.com/politics/2019/mar/23/brexit-eu-takes-back-control-brussels-corridor-viral-photo",
        "apiUrl": "https://content.guardianapis.com/politics/2019/mar/23/brexit-eu-takes-back-control-brussels-corridor-viral-photo",
        "isHosted": false,
        "pillarId": "pillar/news",
        "pillarName": "News"
      },
      {
        "id": "politics/2019/mar/24/six-mps-make-their-case-from-no-deal-to-peoples-vote",
        "type": "article",
        "sectionId": "politics",
        "sectionName": "Politics",
        "webPublicationDate": "2019-03-24T08:00:36Z",
        "webTitle": "From people’s vote to no deal … What should parliament do now? | Six MPs make their cases",
        "webUrl": "https://www.theguardian.com/politics/2019/mar/24/six-mps-make-their-case-from-no-deal-to-peoples-vote",
        "apiUrl": "https://content.guardianapis.com/politics/2019/mar/24/six-mps-make-their-case-from-no-deal-to-peoples-vote",
        "isHosted": false,
        "pillarId": "pillar/news",
        "pillarName": "News"
      },
      {
        "id": "politics/2019/mar/24/kent-prepares-for-brexit-no-deal-traffic-chaos-manston-airport",
        "type": "article",
        "sectionId": "politics",
        "sectionName": "Politics",
        "webPublicationDate": "2019-03-24T07:00:37Z",
        "webTitle": "Keep calm, and park at Manston: Kent gets ready for no-deal traffic chaos",
        "webUrl": "https://www.theguardian.com/politics/2019/mar/24/kent-prepares-for-brexit-no-deal-traffic-chaos-manston-airport",
        "apiUrl": "https://content.guardianapis.com/politics/2019/mar/24/kent-prepares-for-brexit-no-deal-traffic-chaos-manston-airport",
        "isHosted": false,
        "pillarId": "pillar/news",
        "pillarName": "News"
      },
      {
        "id": "politics/2019/mar/23/tory-remainers-brexiters-say-theresa-may-in-end-days",
        "type": "article",
        "sectionId": "politics",
        "sectionName": "Politics",
        "webPublicationDate": "2019-03-24T06:12:01Z",
        "webTitle": "As Tory MPs plot May’s downfall, her last allies battle for her survival",
        "webUrl": "https://www.theguardian.com/politics/2019/mar/23/tory-remainers-brexiters-say-theresa-may-in-end-days",
        "apiUrl": "https://content.guardianapis.com/politics/2019/mar/23/tory-remainers-brexiters-say-theresa-may-in-end-days",
        "isHosted": false,
        "pillarId": "pillar/news",
        "pillarName": "News"
      },
      {
        "id": "politics/2019/mar/24/labour-ban-outsourcing-public-services-private-firms",
        "type": "article",
        "sectionId": "politics",
        "sectionName": "Politics",
        "webPublicationDate": "2019-03-24T05:59:31Z",
        "webTitle": "Labour ‘will ban’ outsourcing of public services to private firms",
        "webUrl": "https://www.theguardian.com/politics/2019/mar/24/labour-ban-outsourcing-public-services-private-firms",
        "apiUrl": "https://content.guardianapis.com/politics/2019/mar/24/labour-ban-outsourcing-public-services-private-firms",
        "isHosted": false,
        "pillarId": "pillar/news",
        "pillarName": "News"
      },
      {
        "id": "politics/2019/mar/23/one-million-march-against-brexit-tories-plan-oust-may",
        "type": "article",
        "sectionId": "politics",
        "sectionName": "Politics",
        "webPublicationDate": "2019-03-23T23:26:00Z",
        "webTitle": "One million join march against Brexit as Tories plan to oust May",
        "webUrl": "https://www.theguardian.com/politics/2019/mar/23/one-million-march-against-brexit-tories-plan-oust-may",
        "apiUrl": "https://content.guardianapis.com/politics/2019/mar/23/one-million-march-against-brexit-tories-plan-oust-may",
        "isHosted": false,
        "pillarId": "pillar/news",
        "pillarName": "News"
      },
      {
        "id": "politics/2019/mar/23/remain-mps-plan-vote-revoke-article-50",
        "type": "article",
        "sectionId": "politics",
        "sectionName": "Politics",
        "webPublicationDate": "2019-03-23T21:00:19Z",
        "webTitle": "Pro-remain MPs draw up plans to vote on revoking article 50",
        "webUrl": "https://www.theguardian.com/politics/2019/mar/23/remain-mps-plan-vote-revoke-article-50",
        "apiUrl": "https://content.guardianapis.com/politics/2019/mar/23/remain-mps-plan-vote-revoke-article-50",
        "isHosted": false,
        "pillarId": "pillar/news",
        "pillarName": "News"
      },
      {
        "id": "politics/2019/mar/23/corbyns-cabinet-set-for-another-huge-rift-michael-savage-toby-helm",
        "type": "article",
        "sectionId": "politics",
        "sectionName": "Politics",
        "webPublicationDate": "2019-03-23T20:58:00Z",
        "webTitle": "Corbyn’s team split over soft Brexit",
        "webUrl": "https://www.theguardian.com/politics/2019/mar/23/corbyns-cabinet-set-for-another-huge-rift-michael-savage-toby-helm",
        "apiUrl": "https://content.guardianapis.com/politics/2019/mar/23/corbyns-cabinet-set-for-another-huge-rift-michael-savage-toby-helm",
        "isHosted": false,
        "pillarId": "pillar/news",
        "pillarName": "News"
      }
    ]
  }
}