{
  "response": {
    "status": "ok",
    "userTier": "developer",
    "total": 2383302,
    "startIndex": 1,
    "pageSize": 10,
    "currentPage": 1,
    "pages": 238331,
    "orderBy": "newest",
    "results": [
      {
        "id": "fashion/2022/oct/30/beauty-spot-hand-creams-10-of-the-best-funmi-fetto",
        "type": "article",
        "sectionId": "fashion",
        "sectionName": "Fashion",
        "webPublicationDate": "2022-10-30T08:30:22Z",
        "webTitle": "Hand creams: 10 of the best",
        "webUrl": "https://www.theguardian.com/fashion/2022/oct/30/beauty-spot-hand-creams-10-of-the-best-funmi-fetto",
        "apiUrl": "https://content.guardianapis.com/fashion/2022/oct/30/beauty-spot-hand-creams-10-of-the-best-funmi-fetto",
        "isHosted": false,
        "pillarId": "pillar/lifestyle",
        "pillarName": "Lifestyle"
      },
      {
        "id": "lifeandstyle/2022/oct/30/i-introduced-my-son-to-sculpture-and-he-quickly-figured-out-the-point-of-it",
        "type": "article",
        "sectionId": "lifeandstyle",
        "sectionName": "Life and style",
        "webPublicationDate": "2022-10-30T08:30:21Z",
        "webTitle": "I introduced my son to sculpture – and he quickly figured out the point of it",
        "webUrl": "https://www.theguardian.com/lifeandstyle/2022/oct/30/i-introduced-my-son-to-sculpture-and-he-quickly-figured-out-the-point-of-it",
        "apiUrl": "https://content.guardianapis.com/lifeandstyle/2022/oct/30/i-introduced-my-son-to-sculpture-and-he-quickly-figured-out-the-point-of-it",
        "isHosted": false,
        "pillarId": "pillar/lifestyle",
        "pillarName": "Lifestyle"
      },
      {
        "id": "books/2022/oct/30/playing-under-the-piano-by-hugh-bonneville-note-perfect-self-deprecation",
        "type": "article",
        "sectionId": "books",
        "sectionName": "Books",
        "webPublicationDate": "2022-10-30T08:30:21Z",
        "webTitle": "Playing Under the Piano by Hugh Bonneville – note-perfect self-deprecation",
        "webUrl": "https://www.theguardian.com/books/2022/oct/30/playing-under-the-piano-by-hugh-bonneville-note-perfect-self-deprecation",
        "apiUrl": "https://content.guardianapis.com/books/2022/oct/30/playing-under-the-piano-by-hugh-bonneville-note-perfect-self-deprecation",
        "isHosted": false,
        "pillarId": "pillar/arts",
        "pillarName": "Arts"
      },
      {
        "id": "world/live/2022/oct/30/russia-ukraine-war-live-us-accuses-russia-of-weaponising-food-after-moscow-suspends-grain-deal",
        "type": "liveblog",
        "sectionId": "world",
        "sectionName": "World news",
        "webPublicationDate": "2022-10-30T08:24:04Z",
        "webTitle": "Russia-Ukraine war live: US accuses Russia of ‘weaponising food’ after Moscow suspends grain deal",
        "webUrl": "https://www.theguardian.com/world/live/2022/oct/30/russia-ukraine-war-live-us-accuses-russia-of-weaponising-food-after-moscow-suspends-grain-deal",
        "apiUrl": "https://content.guardianapis.com/world/live/2022/oct/30/russia-ukraine-war-live-us-accuses-russia-of-weaponising-food-after-moscow-suspends-grain-deal",
        "isHosted": false,
        "pillarId": "pillar/news",
        "pillarName": "News"
      },
      {
        "id": "lifeandstyle/2022/oct/30/why-a-sorbus-tree-is-autumns-own-rescue-remedy",
        "type": "article",
        "sectionId": "lifeandstyle",
        "sectionName": "Life and style",
        "webPublicationDate": "2022-10-30T08:15:21Z",
        "webTitle": "Why a sorbus is autumn’s own rescue remedy | James Wong",
        "webUrl": "https://www.theguardian.com/lifeandstyle/2022/oct/30/why-a-sorbus-tree-is-autumns-own-rescue-remedy",
        "apiUrl": "https://content.guardianapis.com/lifeandstyle/2022/oct/30/why-a-sorbus-tree-is-autumns-own-rescue-remedy",
        "isHosted": false,
        "pillarId": "pillar/lifestyle",
        "pillarName": "Lifestyle"
      },
      {
        "id": "football/2022/oct/30/the-wales-fans-shunning-qatar-world-cup",
        "type": "article",
        "sectionId": "football",
        "sectionName": "Football",
        "webPublicationDate": "2022-10-30T08:00:23Z",
        "webTitle": "‘I don’t want any part of it’: the Wales fans shunning Qatar’s World Cup ",
        "webUrl": "https://www.theguardian.com/football/2022/oct/30/the-wales-fans-shunning-qatar-world-cup",
        "apiUrl": "https://content.guardianapis.com/football/2022/oct/30/the-wales-fans-shunning-qatar-world-cup",
        "isHosted": false,
        "pillarId": "pillar/sport",
        "pillarName": "Sport"
      },
      {
        "id": "film/2022/oct/30/the-wonder-review-a-haunting-period-drama-of-faith-and-reason",
        "type": "article",
        "sectionId": "film",
        "sectionName": "Film",
        "webPublicationDate": "2022-10-30T08:00:22Z",
        "webTitle": "The Wonder review – a haunting period drama of faith and reason",
        "webUrl": "https://www.theguardian.com/film/2022/oct/30/the-wonder-review-a-haunting-period-drama-of-faith-and-reason",
        "apiUrl": "https://content.guardianapis.com/film/2022/oct/30/the-wonder-review-a-haunting-period-drama-of-faith-and-reason",
        "isHosted": false,
        "pillarId": "pillar/arts",
        "pillarName": "Arts"
      },
      {
        "id": "lifeandstyle/2022/oct/30/eva-wiseman-kanye-west-voice-is-just-one-in-rising-chorus-of-antisemitism",
        "type": "article",
        "sectionId": "lifeandstyle",
        "sectionName": "Life and style",
        "webPublicationDate": "2022-10-30T08:00:22Z",
        "webTitle": "Kanye West’s voice is just one in a rising chorus of antisemitism",
        "webUrl": "https://www.theguardian.com/lifeandstyle/2022/oct/30/eva-wiseman-kanye-west-voice-is-just-one-in-rising-chorus-of-antisemitism",
        "apiUrl": "https://content.guardianapis.com/lifeandstyle/2022/oct/30/eva-wiseman-kanye-west-voice-is-just-one-in-rising-chorus-of-antisemitism",
        "isHosted": false,
        "pillarId": "pillar/lifestyle",
        "pillarName": "Lifestyle"
      },
      {
        "id": "environment/2022/oct/30/greenpeace-egypt-greenwashing-cop27",
        "type": "article",
        "sectionId": "environment",
        "sectionName": "Environment",
        "webPublicationDate": "2022-10-30T08:00:22Z",
        "webTitle": "Greenpeace accused of greenwashing Egypt’s image ahead of Cop27",
        "webUrl": "https://www.theguardian.com/environment/2022/oct/30/greenpeace-egypt-greenwashing-cop27",
        "apiUrl": "https://content.guardianapis.com/environment/2022/oct/30/greenpeace-egypt-greenwashing-cop27",
        "isHosted": false,
        "pillarId": "pillar/news",
        "pillarName": "News"
      },
      {
        "id": "commentisfree/2022/oct/30/rishi-sunak-politics-wretched-but-as-british-indian-i-see-why-his-rise-to-top-matters",
        "type": "article",
        "sectionId": "commentisfree",
        "sectionName": "Opinion",
        "webPublicationDate": "2022-10-30T08:00:22Z",
        "webTitle": "Rishi Sunak’s politics are wretched. But as a British Indian, I see why his rise to the top matters | Sonia Sodha",
        "webUrl": "https://www.theguardian.com/commentisfree/2022/oct/30/rishi-sunak-politics-wretched-but-as-british-indian-i-see-why-his-rise-to-top-matters",
        "apiUrl": "https://content.guardianapis.com/commentisfree/2022/oct/30/rishi-sunak-politics-wretched-but-as-british-indian-i-see-why-his-rise-to-top-matters",
        "isHosted": false,
        "pillarId": "pillar/opinion",
        "pillarName": "Opinion"
      }
    ]
  }
}
