{
  "response": {
    "status": "ok",
    "userTier": "developer",
    "total": 98,
    "startIndex": 1,
    "pageSize": 20,
    "currentPage": 1,
    "pages": 5,
    "orderBy": "newest",
    "results": [
      {
        "id": "football/live/2020/may/02/blackpool-v-bolton-wanderers-1953-fa-cup-final-live",
        "type": "liveblog",
        "sectionId": "football",
        "sectionName": "Football",
        "webPublicationDate": "2020-05-02T14:30:38Z",
        "webTitle": "This is the test JSON!",
        "webUrl": "https://www.theguardian.com/football/live/2020/may/02/blackpool-v-bolton-wanderers-1953-fa-cup-final-live",
        "apiUrl": "https://content.guardianapis.com/football/live/2020/may/02/blackpool-v-bolton-wanderers-1953-fa-cup-final-live",
        "isHosted": false,
        "pillarId": "pillar/sport",
        "pillarName": "Sport"
      },
      {
        "id": "world/2020/may/02/auschwitz-memorial-condemns-nazi-slogan-illinois-coronavirus-rally",
        "type": "article",
        "sectionId": "world",
        "sectionName": "World news",
        "webPublicationDate": "2020-05-02T14:27:32Z",
        "webTitle": "Auschwitz memorial condemns appearance of Nazi slogan at US anti-lockdown rally",
        "webUrl": "https://www.theguardian.com/world/2020/may/02/auschwitz-memorial-condemns-nazi-slogan-illinois-coronavirus-rally",
        "apiUrl": "https://content.guardianapis.com/world/2020/may/02/auschwitz-memorial-condemns-nazi-slogan-illinois-coronavirus-rally",
        "isHosted": false,
        "pillarId": "pillar/news",
        "pillarName": "News"
      },
      {
        "id": "us-news/live/2020/may/02/coronavirus-us-live-states-reopening-trump-protests-latest-updates",
        "type": "liveblog",
        "sectionId": "us-news",
        "sectionName": "US news",
        "webPublicationDate": "2020-05-02T14:25:50Z",
        "webTitle": "Coronavirus US live: Trump hails Senate return and says Pelosi 'crazy' for not reopening House",
        "webUrl": "https://www.theguardian.com/us-news/live/2020/may/02/coronavirus-us-live-states-reopening-trump-protests-latest-updates",
        "apiUrl": "https://content.guardianapis.com/us-news/live/2020/may/02/coronavirus-us-live-states-reopening-trump-protests-latest-updates",
        "isHosted": false,
        "pillarId": "pillar/news",
        "pillarName": "News"
      },
      {
        "id": "world/live/2020/may/02/coronavirus-live-news-dr-fauci-blocked-from-testifying-on-us-response",
        "type": "liveblog",
        "sectionId": "world",
        "sectionName": "World news",
        "webPublicationDate": "2020-05-02T14:23:28Z",
        "webTitle": "Coronavirus live news: Malaysia rounds up migrants as UN warns of crackdown on vulnerable",
        "webUrl": "https://www.theguardian.com/world/live/2020/may/02/coronavirus-live-news-dr-fauci-blocked-from-testifying-on-us-response",
        "apiUrl": "https://content.guardianapis.com/world/live/2020/may/02/coronavirus-live-news-dr-fauci-blocked-from-testifying-on-us-response",
        "isHosted": false,
        "pillarId": "pillar/news",
        "pillarName": "News"
      },
      {
        "id": "us-news/2020/may/02/florida-grim-reaper-beach-video-coronavirus",
        "type": "article",
        "sectionId": "us-news",
        "sectionName": "US news",
        "webPublicationDate": "2020-05-02T14:21:51Z",
        "webTitle": "Florida to reopen state parks amid pandemic as 'Grim Reaper' stalks beach",
        "webUrl": "https://www.theguardian.com/us-news/2020/may/02/florida-grim-reaper-beach-video-coronavirus",
        "apiUrl": "https://content.guardianapis.com/us-news/2020/may/02/florida-grim-reaper-beach-video-coronavirus",
        "isHosted": false,
        "pillarId": "pillar/news",
        "pillarName": "News"
      },
      {
        "id": "sport/2020/may/02/bill-beaumont-beats-agustin-pichot-in-battle-for-control-of-world-rugby",
        "type": "article",
        "sectionId": "sport",
        "sectionName": "Sport",
        "webPublicationDate": "2020-05-02T14:20:15Z",
        "webTitle": "Bill Beaumont beats Agustín Pichot in battle for control of World Rugby",
        "webUrl": "https://www.theguardian.com/sport/2020/may/02/bill-beaumont-beats-agustin-pichot-in-battle-for-control-of-world-rugby",
        "apiUrl": "https://content.guardianapis.com/sport/2020/may/02/bill-beaumont-beats-agustin-pichot-in-battle-for-control-of-world-rugby",
        "isHosted": false,
        "pillarId": "pillar/sport",
        "pillarName": "Sport"
      },
      {
        "id": "world/2020/may/02/make-bedside-oral-wills-legal-during-pandemic-uk-campaigners-urge",
        "type": "article",
        "sectionId": "world",
        "sectionName": "World news",
        "webPublicationDate": "2020-05-02T14:20:07Z",
        "webTitle": "Make bedside oral wills legal during pandemic, UK campaigners urge",
        "webUrl": "https://www.theguardian.com/world/2020/may/02/make-bedside-oral-wills-legal-during-pandemic-uk-campaigners-urge",
        "apiUrl": "https://content.guardianapis.com/world/2020/may/02/make-bedside-oral-wills-legal-during-pandemic-uk-campaigners-urge",
        "isHosted": false,
        "pillarId": "pillar/news",
        "pillarName": "News"
      },
      {
        "id": "world/2020/may/02/coronavirus-britons-health-problems-covid-19",
        "type": "article",
        "sectionId": "world",
        "sectionName": "World news",
        "webPublicationDate": "2020-05-02T14:16:25Z",
        "webTitle": "Britons will suffer health problems from Covid-19 for years, warn doctors",
        "webUrl": "https://www.theguardian.com/world/2020/may/02/coronavirus-britons-health-problems-covid-19",
        "apiUrl": "https://content.guardianapis.com/world/2020/may/02/coronavirus-britons-health-problems-covid-19",
        "isHosted": false,
        "pillarId": "pillar/news",
        "pillarName": "News"
      },
      {
        "id": "world/2020/may/02/interest-on-coronavirus-bounce-back-business-loans-to-be-limited-to-25",
        "type": "article",
        "sectionId": "world",
        "sectionName": "World news",
        "webPublicationDate": "2020-05-02T14:09:36Z",
        "webTitle": "Interest on UK coronavirus bounce-back loans to be capped at 2.5%",
        "webUrl": "https://www.theguardian.com/world/2020/may/02/interest-on-coronavirus-bounce-back-business-loans-to-be-limited-to-25",
        "apiUrl": "https://content.guardianapis.com/world/2020/may/02/interest-on-coronavirus-bounce-back-business-loans-to-be-limited-to-25",
        "isHosted": false,
        "pillarId": "pillar/news",
        "pillarName": "News"
      },
      {
        "id": "world/2020/may/02/afghanistan-in-new-battle-against-ravages-of-covid-19",
        "type": "article",
        "sectionId": "world",
        "sectionName": "World news",
        "webPublicationDate": "2020-05-02T14:05:24Z",
        "webTitle": "Civil war, poverty and now the virus: Afghanistan stands  on the brink",
        "webUrl": "https://www.theguardian.com/world/2020/may/02/afghanistan-in-new-battle-against-ravages-of-covid-19",
        "apiUrl": "https://content.guardianapis.com/world/2020/may/02/afghanistan-in-new-battle-against-ravages-of-covid-19",
        "isHosted": false,
        "pillarId": "pillar/news",
        "pillarName": "News"
      },
      {
        "id": "culture/2020/may/02/on-my-radar-hofesh-shechters-cultural-highlights",
        "type": "article",
        "sectionId": "culture",
        "sectionName": "Culture",
        "webPublicationDate": "2020-05-02T14:00:24Z",
        "webTitle": "On my radar: Hofesh Shechter's cultural highlights",
        "webUrl": "https://www.theguardian.com/culture/2020/may/02/on-my-radar-hofesh-shechters-cultural-highlights",
        "apiUrl": "https://content.guardianapis.com/culture/2020/may/02/on-my-radar-hofesh-shechters-cultural-highlights",
        "isHosted": false,
        "pillarId": "pillar/arts",
        "pillarName": "Arts"
      },
      {
        "id": "film/2020/may/02/ema-review-pablo-larrain-mariana-di-girolamo-gael-garcia-bernal",
        "type": "article",
        "sectionId": "film",
        "sectionName": "Film",
        "webPublicationDate": "2020-05-02T14:00:24Z",
        "webTitle": "Ema review – Pablo Larraín dances to a different tune",
        "webUrl": "https://www.theguardian.com/film/2020/may/02/ema-review-pablo-larrain-mariana-di-girolamo-gael-garcia-bernal",
        "apiUrl": "https://content.guardianapis.com/film/2020/may/02/ema-review-pablo-larrain-mariana-di-girolamo-gael-garcia-bernal",
        "isHosted": false,
        "pillarId": "pillar/arts",
        "pillarName": "Arts"
      },
      {
        "id": "world/2020/may/02/islanders-bristle-at-idea-of-being-used-as-uk-test-site-to-end-lockdown",
        "type": "article",
        "sectionId": "world",
        "sectionName": "World news",
        "webPublicationDate": "2020-05-02T14:00:08Z",
        "webTitle": "Islanders bristle at idea of being used as UK test site to end lockdown",
        "webUrl": "https://www.theguardian.com/world/2020/may/02/islanders-bristle-at-idea-of-being-used-as-uk-test-site-to-end-lockdown",
        "apiUrl": "https://content.guardianapis.com/world/2020/may/02/islanders-bristle-at-idea-of-being-used-as-uk-test-site-to-end-lockdown",
        "isHosted": false,
        "pillarId": "pillar/news",
        "pillarName": "News"
      },
      {
        "id": "world/live/2020/may/02/uk-coronavirus-live-government-insists-it-met-100000-daily-test-target",
        "type": "liveblog",
        "sectionId": "world",
        "sectionName": "World news",
        "webPublicationDate": "2020-05-02T13:58:49Z",
        "webTitle": "UK coronavirus live: NHS staff need mental health support now, says Labour",
        "webUrl": "https://www.theguardian.com/world/live/2020/may/02/uk-coronavirus-live-government-insists-it-met-100000-daily-test-target",
        "apiUrl": "https://content.guardianapis.com/world/live/2020/may/02/uk-coronavirus-live-government-insists-it-met-100000-daily-test-target",
        "isHosted": false,
        "pillarId": "pillar/news",
        "pillarName": "News"
      },
      {
        "id": "fashion/2020/may/02/hair-curtains-are-back-and-this-time-theyre-for-girls-as-well",
        "type": "article",
        "sectionId": "fashion",
        "sectionName": "Fashion",
        "webPublicationDate": "2020-05-02T13:35:24Z",
        "webTitle": "Hair curtains are back, and this time they're for  girls as well",
        "webUrl": "https://www.theguardian.com/fashion/2020/may/02/hair-curtains-are-back-and-this-time-theyre-for-girls-as-well",
        "apiUrl": "https://content.guardianapis.com/fashion/2020/may/02/hair-curtains-are-back-and-this-time-theyre-for-girls-as-well",
        "isHosted": false,
        "pillarId": "pillar/lifestyle",
        "pillarName": "Lifestyle"
      },
      {
        "id": "us-news/2020/may/02/tara-reade-joe-biden-sexual-assault-allegations-democrats-response",
        "type": "article",
        "sectionId": "us-news",
        "sectionName": "US news",
        "webPublicationDate": "2020-05-02T13:09:43Z",
        "webTitle": "Who is Tara Reade and what are her allegations against Joe Biden?",
        "webUrl": "https://www.theguardian.com/us-news/2020/may/02/tara-reade-joe-biden-sexual-assault-allegations-democrats-response",
        "apiUrl": "https://content.guardianapis.com/us-news/2020/may/02/tara-reade-joe-biden-sexual-assault-allegations-democrats-response",
        "isHosted": false,
        "pillarId": "pillar/news",
        "pillarName": "News"
      },
      {
        "id": "uk-news/2020/may/02/two-suspects-arrested-over-of-nhs-worker-david-gomoh",
        "type": "article",
        "sectionId": "uk-news",
        "sectionName": "UK news",
        "webPublicationDate": "2020-05-02T13:07:36Z",
        "webTitle": "Two suspects arrested over murder of NHS worker David Gomoh",
        "webUrl": "https://www.theguardian.com/uk-news/2020/may/02/two-suspects-arrested-over-of-nhs-worker-david-gomoh",
        "apiUrl": "https://content.guardianapis.com/uk-news/2020/may/02/two-suspects-arrested-over-of-nhs-worker-david-gomoh",
        "isHosted": false,
        "pillarId": "pillar/news",
        "pillarName": "News"
      },
      {
        "id": "fashion/2020/may/02/nhs-tees-and-designer-masks-the-new-wave-of-corona-fashion",
        "type": "article",
        "sectionId": "fashion",
        "sectionName": "Fashion",
        "webPublicationDate": "2020-05-02T13:05:23Z",
        "webTitle": "Rainbow tees and NHS streetwear– the new wave of altruistic fashion",
        "webUrl": "https://www.theguardian.com/fashion/2020/may/02/nhs-tees-and-designer-masks-the-new-wave-of-corona-fashion",
        "apiUrl": "https://content.guardianapis.com/fashion/2020/may/02/nhs-tees-and-designer-masks-the-new-wave-of-corona-fashion",
        "isHosted": false,
        "pillarId": "pillar/lifestyle",
        "pillarName": "Lifestyle"
      },
      {
        "id": "environment/2020/may/02/dont-get-in-a-flap-test-your-knowledge-of-urban-birds-quiz-aoe",
        "type": "article",
        "sectionId": "environment",
        "sectionName": "Environment",
        "webPublicationDate": "2020-05-02T13:00:24Z",
        "webTitle": "Don't get in a flap: test your knowledge of urban birds – quiz",
        "webUrl": "https://www.theguardian.com/environment/2020/may/02/dont-get-in-a-flap-test-your-knowledge-of-urban-birds-quiz-aoe",
        "apiUrl": "https://content.guardianapis.com/environment/2020/may/02/dont-get-in-a-flap-test-your-knowledge-of-urban-birds-quiz-aoe",
        "isHosted": false,
        "pillarId": "pillar/news",
        "pillarName": "News"
      },
      {
        "id": "music/2020/may/02/one-to-watch-baby-rose-atlanta-to-myself",
        "type": "article",
        "sectionId": "music",
        "sectionName": "Music",
        "webPublicationDate": "2020-05-02T13:00:24Z",
        "webTitle": "One to watch: Baby Rose",
        "webUrl": "https://www.theguardian.com/music/2020/may/02/one-to-watch-baby-rose-atlanta-to-myself",
        "apiUrl": "https://content.guardianapis.com/music/2020/may/02/one-to-watch-baby-rose-atlanta-to-myself",
        "isHosted": false,
        "pillarId": "pillar/arts",
        "pillarName": "Arts"
      }
    ]
  }
}