{"response":{"status":"ok","userTier":"developer","total":2024387,"startIndex":1,"pageSize":10,"currentPage":1,"pages":202439,"orderBy":"newest","results":[{"id":"sport/live/2018/apr/07/the-masters-2018-third-round-live","type":"liveblog","sectionId":"sport","sectionName":"Sport","webPublicationDate":"2018-04-07T18:38:56Z","webTitle":"The Masters 2018: third round – live!","webUrl":"https://www.theguardian.com/sport/live/2018/apr/07/the-masters-2018-third-round-live","apiUrl":"https://content.guardianapis.com/sport/live/2018/apr/07/the-masters-2018-third-round-live","isHosted":false,"pillarId":"pillar/sport","pillarName":"Sport"},{"id":"football/2018/apr/07/manchester-city-manchester-united-premier-league-match-report","type":"article","sectionId":"football","sectionName":"Football","webPublicationDate":"2018-04-07T18:35:29Z","webTitle":"Chris Smalling hits winner for Manchester United to spoil City’s party","webUrl":"https://www.theguardian.com/football/2018/apr/07/manchester-city-manchester-united-premier-league-match-report","apiUrl":"https://content.guardianapis.com/football/2018/apr/07/manchester-city-manchester-united-premier-league-match-report","isHosted":false,"pillarId":"pillar/sport","pillarName":"Sport"},{"id":"football/live/2018/apr/07/manchester-city-v-manchester-united-premier-league-live","type":"liveblog","sectionId":"football","sectionName":"Football","webPublicationDate":"2018-04-07T18:31:43Z","webTitle":"Manchester City 2-3 Manchester United: Premier League – as it happened","webUrl":"https://www.theguardian.com/football/live/2018/apr/07/manchester-city-v-manchester-united-premier-league-live","apiUrl":"https://content.guardianapis.com/football/live/2018/apr/07/manchester-city-v-manchester-united-premier-league-live","isHosted":false,"pillarId":"pillar/sport","pillarName":"Sport"},{"id":"science/2018/apr/07/luxury-space-hotel-orion-span-aurora-station","type":"article","sectionId":"science","sectionName":"Science","webPublicationDate":"2018-04-07T18:13:00Z","webTitle":"'First luxury space hotel' plans to offer zero gravity living – for $792,000 a night","webUrl":"https://www.theguardian.com/science/2018/apr/07/luxury-space-hotel-orion-span-aurora-station","apiUrl":"https://content.guardianapis.com/science/2018/apr/07/luxury-space-hotel-orion-span-aurora-station","isHosted":false,"pillarId":"pillar/news","pillarName":"News"},{"id":"commentisfree/2018/apr/07/farewell-butch-wilkins-and-the-crafty-cockney","type":"article","sectionId":"commentisfree","sectionName":"Opinion","webPublicationDate":"2018-04-07T18:00:07Z","webTitle":"Farewell Butch Wilkins and the Crafty Cockney – great players from a simpler sporting era | Alex Clark","webUrl":"https://www.theguardian.com/commentisfree/2018/apr/07/farewell-butch-wilkins-and-the-crafty-cockney","apiUrl":"https://content.guardianapis.com/commentisfree/2018/apr/07/farewell-butch-wilkins-and-the-crafty-cockney","isHosted":false,"pillarId":"pillar/opinion","pillarName":"Opinion"},{"id":"sport/2018/apr/07/buywise-grand-national-evan-williams-aintree-horse-racing-tips","type":"article","sectionId":"sport","sectionName":"Sport","webPublicationDate":"2018-04-07T17:21:00Z","webTitle":"Buywise out to shake off dodgy jumper reputation in Grand National","webUrl":"https://www.theguardian.com/sport/2018/apr/07/buywise-grand-national-evan-williams-aintree-horse-racing-tips","apiUrl":"https://content.guardianapis.com/sport/2018/apr/07/buywise-grand-national-evan-williams-aintree-horse-racing-tips","isHosted":false,"pillarId":"pillar/sport","pillarName":"Sport"},{"id":"commentisfree/2018/apr/07/entebbe-film-annoy-left-and-right-thank-heavens","type":"article","sectionId":"commentisfree","sectionName":"Opinion","webPublicationDate":"2018-04-07T17:15:06Z","webTitle":"Entebbe: a film to annoy both left and right, and thank heavens for that | Nick Cohen","webUrl":"https://www.theguardian.com/commentisfree/2018/apr/07/entebbe-film-annoy-left-and-right-thank-heavens","apiUrl":"https://content.guardianapis.com/commentisfree/2018/apr/07/entebbe-film-annoy-left-and-right-thank-heavens","isHosted":false,"pillarId":"pillar/opinion","pillarName":"Opinion"},{"id":"artanddesign/2018/apr/07/the-big-picture-shop-assistant-orlando-west-soweto-1972-david-goldblatt","type":"article","sectionId":"artanddesign","sectionName":"Art and design","webPublicationDate":"2018-04-07T17:00:07Z","webTitle":"The big picture: Shop assistant, Orlando West, Soweto, 1972","webUrl":"https://www.theguardian.com/artanddesign/2018/apr/07/the-big-picture-shop-assistant-orlando-west-soweto-1972-david-goldblatt","apiUrl":"https://content.guardianapis.com/artanddesign/2018/apr/07/the-big-picture-shop-assistant-orlando-west-soweto-1972-david-goldblatt","isHosted":false,"pillarId":"pillar/arts","pillarName":"Arts"},{"id":"science/2018/apr/07/ever-evolving-story-humanity-david-reich-interview-neanderthals-denisovans-genome","type":"article","sectionId":"science","sectionName":"Science","webPublicationDate":"2018-04-07T17:00:06Z","webTitle":"David Reich: ‘Neanderthals were perhaps capable of many modern human behaviours’","webUrl":"https://www.theguardian.com/science/2018/apr/07/ever-evolving-story-humanity-david-reich-interview-neanderthals-denisovans-genome","apiUrl":"https://content.guardianapis.com/science/2018/apr/07/ever-evolving-story-humanity-david-reich-interview-neanderthals-denisovans-genome","isHosted":false,"pillarId":"pillar/news","pillarName":"News"},{"id":"music/2018/apr/07/flohio-one-to-watch","type":"article","sectionId":"music","sectionName":"Music","webPublicationDate":"2018-04-07T17:00:06Z","webTitle":"One to watch: Flohio","webUrl":"https://www.theguardian.com/music/2018/apr/07/flohio-one-to-watch","apiUrl":"https://content.guardianapis.com/music/2018/apr/07/flohio-one-to-watch","isHosted":false,"pillarId":"pillar/arts","pillarName":"Arts"}]}}