{
  "response": {
    "status": "ok",
    "userTier": "developer",
    "total": 2383142,
    "startIndex": 1,
    "pageSize": 10,
    "currentPage": 1,
    "pages": 238315,
    "orderBy": "newest",
    "results": [
      {
        "id": "sport/live/2022/oct/29/new-zealand-v-wales-womens-rugby-world-cup-quarter-final-live",
        "type": "liveblog",
        "sectionId": "sport",
        "sectionName": "Sport",
        "webPublicationDate": "2022-10-29T08:57:30Z",
        "webTitle": "New Zealand 55-3 Wales: Women’s Rugby World Cup quarter-final – as it happened",
        "webUrl": "https://www.theguardian.com/sport/live/2022/oct/29/new-zealand-v-wales-womens-rugby-world-cup-quarter-final-live",
        "apiUrl": "https://content.guardianapis.com/sport/live/2022/oct/29/new-zealand-v-wales-womens-rugby-world-cup-quarter-final-live",
        "fields": {
          "headline": "New Zealand 55-3 Wales: Women’s Rugby World Cup quarter-final – as it happened",
          "byline": "Sarah Rendell",
          "thumbnail": "https://media.guim.co.uk/a19e7fd0401a3c79c3edcfff62b511af069504ab/0_112_4478_2688/500.jpg"
        },
        "isHosted": false,
        "pillarId": "pillar/sport",
        "pillarName": "Sport"
      },
      {
        "id": "world/live/2022/oct/29/russia-ukraine-war-live-moscow-says-draft-completed-un-chief-appeals-for-renewed-grain-deal",
        "type": "liveblog",
        "sectionId": "world",
        "sectionName": "World news",
        "webPublicationDate": "2022-10-29T08:53:53Z",
        "webTitle": "Russia-Ukraine war live: Moscow says draft ‘completed’; UN chief appeals for renewed grain deal",
        "webUrl": "https://www.theguardian.com/world/live/2022/oct/29/russia-ukraine-war-live-moscow-says-draft-completed-un-chief-appeals-for-renewed-grain-deal",
        "apiUrl": "https://content.guardianapis.com/world/live/2022/oct/29/russia-ukraine-war-live-moscow-says-draft-completed-un-chief-appeals-for-renewed-grain-deal",
        "fields": {
          "headline": "Russia-Ukraine war live: Moscow says draft ‘completed’; UN chief appeals for renewed grain deal",
          "byline": "Geneva Abdul",
          "thumbnail": "https://media.guim.co.uk/9c51164d2edbaf1a1ba3b39ee1561ad282507384/0_576_8640_5184/500.jpg"
        },
        "isHosted": false,
        "pillarId": "pillar/news",
        "pillarName": "News"
      },
      {
        "id": "uk-news/2022/oct/28/royal-navy-chief-orders-investigation-into-abhorrent-allegations-of-bullying-misogyny-and-sexual-harassment",
        "type": "article",
        "sectionId": "uk-news",
        "sectionName": "UK news",
        "webPublicationDate": "2022-10-29T08:22:26Z",
        "webTitle": "Royal Navy chief orders inquiry into ‘abhorrent’ allegations of bullying and sexual harassment",
        "webUrl": "https://www.theguardian.com/uk-news/2022/oct/28/royal-navy-chief-orders-investigation-into-abhorrent-allegations-of-bullying-misogyny-and-sexual-harassment",
        "apiUrl": "https://content.guardianapis.com/uk-news/2022/oct/28/royal-navy-chief-orders-investigation-into-abhorrent-allegations-of-bullying-misogyny-and-sexual-harassment",
        "fields": {
          "headline": "Royal Navy chief orders inquiry into ‘abhorrent’ allegations of bullying and sexual harassment",
          "byline": "Nadeem Badshah",
          "thumbnail": "https://media.guim.co.uk/568eb50aab00fbc56d899c5ae08ac8212f6c81d2/0_124_3500_2099/500.jpg"
        },
        "isHosted": false,
        "pillarId": "pillar/news",
        "pillarName": "News"
      },
      {
        "id": "books/2022/oct/29/jonathan-coe-were-a-nation-driven-by-emotion-and-not-by-reason",
        "type": "article",
        "sectionId": "books",
        "sectionName": "Books",
        "webPublicationDate": "2022-10-29T08:00:52Z",
        "webTitle": "Jonathan Coe: ‘We’re a nation driven by emotion and not by reason’",
        "webUrl": "https://www.theguardian.com/books/2022/oct/29/jonathan-coe-were-a-nation-driven-by-emotion-and-not-by-reason",
        "apiUrl": "https://content.guardianapis.com/books/2022/oct/29/jonathan-coe-were-a-nation-driven-by-emotion-and-not-by-reason",
        "fields": {
          "headline": "Jonathan Coe: ‘We’re a nation driven by emotion and not by reason’",
          "byline": "Lisa Allardice",
          "thumbnail": "https://media.guim.co.uk/2d4679105e27756180efff1708eb3dd0ea503205/1207_991_2026_1216/500.jpg"
        },
        "isHosted": false,
        "pillarId": "pillar/arts",
        "pillarName": "Arts"
      },
      {
        "id": "us-news/2022/oct/29/tiktok-dead-body-josh-nalley-tv-csi-vegas",
        "type": "article",
        "sectionId": "us-news",
        "sectionName": "US news",
        "webPublicationDate": "2022-10-29T08:00:52Z",
        "webTitle": "Man who plays dead on TikTok gets new life as corpse on TV crime show",
        "webUrl": "https://www.theguardian.com/us-news/2022/oct/29/tiktok-dead-body-josh-nalley-tv-csi-vegas",
        "apiUrl": "https://content.guardianapis.com/us-news/2022/oct/29/tiktok-dead-body-josh-nalley-tv-csi-vegas",
        "fields": {
          "headline": "Man who plays dead on TikTok gets new life as corpse on TV crime show",
          "byline": "Maya Yang",
          "thumbnail": "https://media.guim.co.uk/077fb1c3af98ba15fa70d386a94ea0616819c3c1/0_90_3000_1800/500.jpg"
        },
        "isHosted": false,
        "pillarId": "pillar/news",
        "pillarName": "News"
      },
      {
        "id": "australia-news/live/2022/oct/29/australia-news-live-updates-families-held-in-syria-expected-to-arrive-in-sydney-victoria-flood-warning",
        "type": "liveblog",
        "sectionId": "australia-news",
        "sectionName": "Australia news",
        "webPublicationDate": "2022-10-29T07:09:09Z",
        "webTitle": "Coalition attacks repatriation of women and children from Syria – as it happened",
        "webUrl": "https://www.theguardian.com/australia-news/live/2022/oct/29/australia-news-live-updates-families-held-in-syria-expected-to-arrive-in-sydney-victoria-flood-warning",
        "apiUrl": "https://content.guardianapis.com/australia-news/live/2022/oct/29/australia-news-live-updates-families-held-in-syria-expected-to-arrive-in-sydney-victoria-flood-warning",
        "fields": {
          "headline": "Coalition attacks repatriation of women and children from Syria – as it happened",
          "byline": "Tory Shepherd and Natasha May (earlier)",
          "thumbnail": "https://media.guim.co.uk/8bf6a96f69d18a2f83937e85f1fa52d38dcf60e1/0_303_5472_3283/500.jpg"
        },
        "isHosted": false,
        "pillarId": "pillar/news",
        "pillarName": "News"
      },
      {
        "id": "sport/2022/oct/29/federer-v-nadal-a-great-sporting-rivalry-rooted-in-mutual-respect",
        "type": "article",
        "sectionId": "sport",
        "sectionName": "Sport",
        "webPublicationDate": "2022-10-29T07:00:52Z",
        "webTitle": "Federer v Nadal: a great sporting rivalry rooted in mutual respect",
        "webUrl": "https://www.theguardian.com/sport/2022/oct/29/federer-v-nadal-a-great-sporting-rivalry-rooted-in-mutual-respect",
        "apiUrl": "https://content.guardianapis.com/sport/2022/oct/29/federer-v-nadal-a-great-sporting-rivalry-rooted-in-mutual-respect",
        "fields": {
          "headline": "Federer v Nadal: a great sporting rivalry rooted in mutual respect",
          "byline": "Simon Cambers and Simon Graf",
          "thumbnail": "https://media.guim.co.uk/dfa26b686fb5307d5de21cdadf4eb523c4b83033/0_50_3000_1801/500.jpg"
        },
        "isHosted": false,
        "pillarId": "pillar/sport",
        "pillarName": "Sport"
      },
      {
        "id": "football/2022/oct/29/paul-mullin-wrexham-boots-conservatives-funding",
        "type": "article",
        "sectionId": "football",
        "sectionName": "Football",
        "webPublicationDate": "2022-10-29T07:00:52Z",
        "webTitle": "Wrexham striker who put boot in to Tories may have scored a costly own goal | Barry Glendenning",
        "webUrl": "https://www.theguardian.com/football/2022/oct/29/paul-mullin-wrexham-boots-conservatives-funding",
        "apiUrl": "https://content.guardianapis.com/football/2022/oct/29/paul-mullin-wrexham-boots-conservatives-funding",
        "fields": {
          "headline": "Wrexham striker who put boot in to Tories may have scored a costly own goal",
          "byline": "Barry Glendenning",
          "thumbnail": "https://media.guim.co.uk/b698eb71bd161eb22617de052c344861045b149d/0_0_2560_1536/500.jpg"
        },
        "isHosted": false,
        "pillarId": "pillar/sport",
        "pillarName": "Sport"
      },
      {
        "id": "film/2022/oct/29/streaming-top-gun-maverick-and-the-best-of-tom-cruise",
        "type": "article",
        "sectionId": "film",
        "sectionName": "Film",
        "webPublicationDate": "2022-10-29T07:00:52Z",
        "webTitle": "Streaming: Top Gun: Maverick and the best of Tom Cruise ",
        "webUrl": "https://www.theguardian.com/film/2022/oct/29/streaming-top-gun-maverick-and-the-best-of-tom-cruise",
        "apiUrl": "https://content.guardianapis.com/film/2022/oct/29/streaming-top-gun-maverick-and-the-best-of-tom-cruise",
        "fields": {
          "headline": "Streaming: Top Gun: Maverick and the best of Tom Cruise ",
          "byline": "Guy Lodge",
          "thumbnail": "https://media.guim.co.uk/19ddd8e0bafede6b9217bf9dcd634e25b3b91cb3/326_0_2448_1469/500.jpg"
        },
        "isHosted": false,
        "pillarId": "pillar/arts",
        "pillarName": "Arts"
      },
      {
        "id": "sport/2022/oct/29/jake-paul-anderson-silva-fight-teddy-atlas",
        "type": "article",
        "sectionId": "sport",
        "sectionName": "Sport",
        "webPublicationDate": "2022-10-29T07:00:51Z",
        "webTitle": "But can he fight?: Teddy Atlas grades YouTuber-turned-boxer Jake Paul",
        "webUrl": "https://www.theguardian.com/sport/2022/oct/29/jake-paul-anderson-silva-fight-teddy-atlas",
        "apiUrl": "https://content.guardianapis.com/sport/2022/oct/29/jake-paul-anderson-silva-fight-teddy-atlas",
        "fields": {
          "headline": "But can he fight?: Teddy Atlas grades YouTuber-turned-boxer Jake Paul",
          "byline": "Ben Wyatt",
          "thumbnail": "https://media.guim.co.uk/3b159890e2df3d7d5f753ded9b7e51a8a89ec80b/0_0_5324_3196/500.jpg"
        },
        "isHosted": false,
        "pillarId": "pillar/sport",
        "pillarName": "Sport"
      }
    ]
  }
}
