{
  "response": {
      "status": "ok",
      "userTier": "developer",
      "total": 2415678,
      "startIndex": 1,
      "pageSize": 10,
      "currentPage": 1,
      "pages": 241568,
      "orderBy": "newest",
      "results": [
          {
              "id": "sport/live/2023/apr/02/england-v-italy-womens-six-nations-live",
              "type": "liveblog",
              "sectionId": "sport",
              "sectionName": "Sport",
              "webPublicationDate": "2023-04-02T14:03:14Z",
              "webTitle": "England v Italy: Women’s Six Nations – live",
              "webUrl": "https://www.theguardian.com/sport/live/2023/apr/02/england-v-italy-womens-six-nations-live",
              "apiUrl": "https://content.guardianapis.com/sport/live/2023/apr/02/england-v-italy-womens-six-nations-live",
              "fields": {
                  "headline": "England v Italy: Women’s Six Nations – live",
                  "byline": "Luke McLaughlin",
                  "thumbnail": "https://media.guim.co.uk/46a5a857cebcdcaf804752d2bd5886e067fd4ff8/0_4_4943_2967/500.jpg"
              },
              "isHosted": false,
              "pillarId": "pillar/sport",
              "pillarName": "Sport"
          },
          {
              "id": "books/2023/apr/02/the-five-sorrowful-mysteries-of-andy-africa-by-stephen-buoro-review-astute-story-of-self-discovery",
              "type": "article",
              "sectionId": "books",
              "sectionName": "Books",
              "webPublicationDate": "2023-04-02T14:00:22Z",
              "webTitle": "The Five Sorrowful Mysteries of Andy Africa by Stephen Buoro review – astute story of self-discovery",
              "webUrl": "https://www.theguardian.com/books/2023/apr/02/the-five-sorrowful-mysteries-of-andy-africa-by-stephen-buoro-review-astute-story-of-self-discovery",
              "apiUrl": "https://content.guardianapis.com/books/2023/apr/02/the-five-sorrowful-mysteries-of-andy-africa-by-stephen-buoro-review-astute-story-of-self-discovery",
              "fields": {
                  "headline": "The Five Sorrowful Mysteries of Andy Africa by Stephen Buoro review – astute story of self-discovery",
                  "byline": "Lucy Popescu",
                  "thumbnail": "https://media.guim.co.uk/794e61e522ff40f218d43c8ad2777e78c88dab24/0_795_4480_2688/500.jpg"
              },
              "isHosted": false,
              "pillarId": "pillar/arts",
              "pillarName": "Arts"
          },
          {
              "id": "media/2023/apr/02/social-media-analyst-emily-hund-influencer-authenticity-interview",
              "type": "article",
              "sectionId": "media",
              "sectionName": "Media",
              "webPublicationDate": "2023-04-02T14:00:22Z",
              "webTitle": "Social media analyst Emily Hund: ‘We can never know the truth behind an influencer’s seeming authenticity’",
              "webUrl": "https://www.theguardian.com/media/2023/apr/02/social-media-analyst-emily-hund-influencer-authenticity-interview",
              "apiUrl": "https://content.guardianapis.com/media/2023/apr/02/social-media-analyst-emily-hund-influencer-authenticity-interview",
              "fields": {
                  "headline": "Social media analyst Emily Hund: ‘We can never know the truth behind an influencer’s seeming authenticity’",
                  "byline": "Alice Fisher",
                  "thumbnail": "https://media.guim.co.uk/0b5be6f5c99200b3f51e396d380d10e623c04dde/0_467_7008_4205/500.jpg"
              },
              "isHosted": false,
              "pillarId": "pillar/news",
              "pillarName": "News"
          },
          {
              "id": "music/2023/apr/02/chloe-in-pieces-review-chloe-x-halle",
              "type": "article",
              "sectionId": "music",
              "sectionName": "Music",
              "webPublicationDate": "2023-04-02T14:00:22Z",
              "webTitle": "Chlöe: In Pieces review – a fragmented solo debut",
              "webUrl": "https://www.theguardian.com/music/2023/apr/02/chloe-in-pieces-review-chloe-x-halle",
              "apiUrl": "https://content.guardianapis.com/music/2023/apr/02/chloe-in-pieces-review-chloe-x-halle",
              "fields": {
                  "headline": "Chlöe: In Pieces review – a fragmented solo debut",
                  "byline": "Ammar Kalia",
                  "thumbnail": "https://media.guim.co.uk/b5c312dae473804af1b925c6c6b39118195888de/0_61_1600_960/500.jpg"
              },
              "isHosted": false,
              "pillarId": "pillar/arts",
              "pillarName": "Arts"
          },
          {
              "id": "football/live/2023/apr/02/west-ham-v-southampton-premier-league-live",
              "type": "liveblog",
              "sectionId": "football",
              "sectionName": "Football",
              "webPublicationDate": "2023-04-02T13:58:59Z",
              "webTitle": "West Ham v Southampton: Premier League – live",
              "webUrl": "https://www.theguardian.com/football/live/2023/apr/02/west-ham-v-southampton-premier-league-live",
              "apiUrl": "https://content.guardianapis.com/football/live/2023/apr/02/west-ham-v-southampton-premier-league-live",
              "fields": {
                  "headline": "West Ham v Southampton: Premier League – live",
                  "byline": "Daniel Harris",
                  "thumbnail": "https://media.guim.co.uk/ae55ae213e82b348e215db2d7c180a7ffdfcb06f/186_551_2546_1528/500.jpg"
              },
              "isHosted": false,
              "pillarId": "pillar/sport",
              "pillarName": "Sport"
          },
          {
              "id": "football/live/2023/apr/02/arsenal-v-manchester-city-womens-super-league-live",
              "type": "liveblog",
              "sectionId": "football",
              "sectionName": "Football",
              "webPublicationDate": "2023-04-02T13:41:18Z",
              "webTitle": "Arsenal 2-1 Manchester City: Women’s Super League – live reaction",
              "webUrl": "https://www.theguardian.com/football/live/2023/apr/02/arsenal-v-manchester-city-womens-super-league-live",
              "apiUrl": "https://content.guardianapis.com/football/live/2023/apr/02/arsenal-v-manchester-city-womens-super-league-live",
              "fields": {
                  "headline": "Arsenal 2-1 Manchester City: Women’s Super League – live reaction",
                  "byline": "John Brewin",
                  "thumbnail": "https://media.guim.co.uk/d3b55890cded262a56c9e200267b3cd1dbad0b3f/122_683_4814_2890/500.jpg"
              },
              "isHosted": false,
              "pillarId": "pillar/sport",
              "pillarName": "Sport"
          },
          {
              "id": "football/2023/apr/02/brendan-rodgers-leaves-leicester-by-mutual-consent-after-palace-defeat",
              "type": "article",
              "sectionId": "football",
              "sectionName": "Football",
              "webPublicationDate": "2023-04-02T13:29:30Z",
              "webTitle": "Brendan Rodgers leaves Leicester by mutual consent after Palace defeat",
              "webUrl": "https://www.theguardian.com/football/2023/apr/02/brendan-rodgers-leaves-leicester-by-mutual-consent-after-palace-defeat",
              "apiUrl": "https://content.guardianapis.com/football/2023/apr/02/brendan-rodgers-leaves-leicester-by-mutual-consent-after-palace-defeat",
              "fields": {
                  "headline": "Brendan Rodgers leaves Leicester by mutual consent after Palace defeat",
                  "byline": "Ben Fisher",
                  "thumbnail": "https://media.guim.co.uk/94aa73cb824edf3181033839bb61ddbf7059a230/0_9_1967_1180/500.jpg"
              },
              "isHosted": false,
              "pillarId": "pillar/sport",
              "pillarName": "Sport"
          },
          {
              "id": "lifeandstyle/2023/apr/02/could-rocks-be-conscious-why-are-some-things-conscious-and-some-not",
              "type": "article",
              "sectionId": "lifeandstyle",
              "sectionName": "Life and style",
              "webPublicationDate": "2023-04-02T13:01:21Z",
              "webTitle": "Could rocks be conscious? Why are some things conscious and some not?",
              "webUrl": "https://www.theguardian.com/lifeandstyle/2023/apr/02/could-rocks-be-conscious-why-are-some-things-conscious-and-some-not",
              "apiUrl": "https://content.guardianapis.com/lifeandstyle/2023/apr/02/could-rocks-be-conscious-why-are-some-things-conscious-and-some-not",
              "fields": {
                  "headline": "Could rocks be conscious? Why are some things conscious and some not?",
                  "byline": "",
                  "thumbnail": "https://media.guim.co.uk/9b1ac0ca1781fd56632ade515542ad026210144d/0_526_7853_4712/500.jpg"
              },
              "isHosted": false,
              "pillarId": "pillar/lifestyle",
              "pillarName": "Lifestyle"
          },
          {
              "id": "lifeandstyle/2023/apr/02/readers-reply-why-are-the-french-so-much-more-militant-than-the-british",
              "type": "article",
              "sectionId": "lifeandstyle",
              "sectionName": "Life and style",
              "webPublicationDate": "2023-04-02T13:00:21Z",
              "webTitle": "Readers reply: why are the French so much more militant than the British?",
              "webUrl": "https://www.theguardian.com/lifeandstyle/2023/apr/02/readers-reply-why-are-the-french-so-much-more-militant-than-the-british",
              "apiUrl": "https://content.guardianapis.com/lifeandstyle/2023/apr/02/readers-reply-why-are-the-french-so-much-more-militant-than-the-british",
              "fields": {
                  "headline": "Readers reply: why are the French so much more militant than the British?",
                  "byline": "",
                  "thumbnail": "https://media.guim.co.uk/65dc51281cbe2817125e179779e3086a996c7c77/0_274_8192_4915/500.jpg"
              },
              "isHosted": false,
              "pillarId": "pillar/lifestyle",
              "pillarName": "Lifestyle"
          },
          {
              "id": "business/2023/apr/02/property-tycoon-nick-candy-locked-in-legal-fight-with-former-business-partner",
              "type": "article",
              "sectionId": "business",
              "sectionName": "Business",
              "webPublicationDate": "2023-04-02T13:00:21Z",
              "webTitle": "Property tycoon Nick Candy locked in legal fight with former business partner",
              "webUrl": "https://www.theguardian.com/business/2023/apr/02/property-tycoon-nick-candy-locked-in-legal-fight-with-former-business-partner",
              "apiUrl": "https://content.guardianapis.com/business/2023/apr/02/property-tycoon-nick-candy-locked-in-legal-fight-with-former-business-partner",
              "fields": {
                  "headline": "Property tycoon Nick Candy locked in legal fight with former business partner",
                  "byline": "Haroon Siddique",
                  "thumbnail": "https://media.guim.co.uk/e6e6408e15dd0330e7c98b10bc9e5ea7159b783d/0_158_3500_2099/500.jpg"
              },
              "isHosted": false,
              "pillarId": "pillar/news",
              "pillarName": "News"
          }
      ]
  }
}