{"response":{"status":"ok","userTier":"developer","total":192,"startIndex":1,"pageSize":10,"currentPage":1,"pages":20,"orderBy":"newest","results":[{"id":"sport/live/2018/apr/08/the-masters-final-round-live","type":"liveblog","sectionId":"sport","sectionName":"Sport","webPublicationDate":"2018-04-08T22:19:56Z","webTitle":"The Masters 2018: final round – live!","webUrl":"https://www.theguardian.com/sport/live/2018/apr/08/the-masters-final-round-live","apiUrl":"https://content.guardianapis.com/sport/live/2018/apr/08/the-masters-final-round-live","fields":{"thumbnail":"https://media.guim.co.uk/678606e20489b52d69f653c4dc641587d67b9cf3/151_67_4439_2663/500.jpg"},"isHosted":false,"pillarId":"pillar/sport","pillarName":"Sport"},{"id":"world/live/2018/apr/08/hungary-election-victor-orban-expected-to-win-third-term-live-updates","type":"liveblog","sectionId":"world","sectionName":"World news","webPublicationDate":"2018-04-08T22:15:06Z","webTitle":"Hungary election: Victor Orbán expected to win third term - live updates","webUrl":"https://www.theguardian.com/world/live/2018/apr/08/hungary-election-victor-orban-expected-to-win-third-term-live-updates","apiUrl":"https://content.guardianapis.com/world/live/2018/apr/08/hungary-election-victor-orban-expected-to-win-third-term-live-updates","fields":{"thumbnail":"https://media.guim.co.uk/3877b301d26412260c25aab4703d54780ad17d61/0_82_2220_1332/500.jpg"},"isHosted":false,"pillarId":"pillar/news","pillarName":"News"},{"id":"football/2018/apr/08/pep-guardiola-manchester-city-hangover-cure-liverpool-champions-league","type":"article","sectionId":"football","sectionName":"Football","webPublicationDate":"2018-04-08T21:30:40Z","webTitle":"Pep Guardiola seeks Manchester City hangover cure to face Liverpool","webUrl":"https://www.theguardian.com/football/2018/apr/08/pep-guardiola-manchester-city-hangover-cure-liverpool-champions-league","apiUrl":"https://content.guardianapis.com/football/2018/apr/08/pep-guardiola-manchester-city-hangover-cure-liverpool-champions-league","fields":{"thumbnail":"https://media.guim.co.uk/4d49e3805095a9db05e8a508012f0238a4c40815/97_110_3199_1919/500.jpg"},"isHosted":false,"pillarId":"pillar/sport","pillarName":"Sport"},{"id":"football/2018/apr/08/harry-kane-tottenham-golden-boot-mohamed-salah","type":"article","sectionId":"football","sectionName":"Football","webPublicationDate":"2018-04-08T21:30:40Z","webTitle":"Harry Kane still chasing golden boot despite missing out on Stoke goal","webUrl":"https://www.theguardian.com/football/2018/apr/08/harry-kane-tottenham-golden-boot-mohamed-salah","apiUrl":"https://content.guardianapis.com/football/2018/apr/08/harry-kane-tottenham-golden-boot-mohamed-salah","fields":{"thumbnail":"https://media.guim.co.uk/fa2f89d523d3b11449e529e4a49d0bef3d757c15/135_129_1792_1075/500.jpg"},"isHosted":false,"pillarId":"pillar/sport","pillarName":"Sport"},{"id":"football/2018/apr/08/numbers-game-fails-to-add-up-for-sam-allardyce-and-everton-liverpool","type":"article","sectionId":"football","sectionName":"Football","webPublicationDate":"2018-04-08T21:30:40Z","webTitle":"Numbers game fails to add up for Sam Allardyce and Everton | Richard Jolly","webUrl":"https://www.theguardian.com/football/2018/apr/08/numbers-game-fails-to-add-up-for-sam-allardyce-and-everton-liverpool","apiUrl":"https://content.guardianapis.com/football/2018/apr/08/numbers-game-fails-to-add-up-for-sam-allardyce-and-everton-liverpool","fields":{"thumbnail":"https://media.guim.co.uk/bba1bb9dffd1af7ac619158377dd63708bca4b2f/23_92_1384_830/500.jpg"},"isHosted":false,"pillarId":"pillar/sport","pillarName":"Sport"},{"id":"football/2018/apr/08/leicester-claude-puel-squad-unrest","type":"article","sectionId":"football","sectionName":"Football","webPublicationDate":"2018-04-08T21:29:40Z","webTitle":"Leicester mood sours as Claude Puel’s methods come under increased scrutiny","webUrl":"https://www.theguardian.com/football/2018/apr/08/leicester-claude-puel-squad-unrest","apiUrl":"https://content.guardianapis.com/football/2018/apr/08/leicester-claude-puel-squad-unrest","fields":{"thumbnail":"https://media.guim.co.uk/d1389c68660035f704198e938e7c2f5ffa1c8490/0_84_4188_2513/500.jpg"},"isHosted":false,"pillarId":"pillar/sport","pillarName":"Sport"},{"id":"world/2018/apr/08/canada-hockey-team-bus-crash","type":"article","sectionId":"world","sectionName":"World news","webPublicationDate":"2018-04-08T21:13:13Z","webTitle":"Canada bus crash: father finds son standing amid 'devastating sight'","webUrl":"https://www.theguardian.com/world/2018/apr/08/canada-hockey-team-bus-crash","apiUrl":"https://content.guardianapis.com/world/2018/apr/08/canada-hockey-team-bus-crash","fields":{"thumbnail":"https://media.guim.co.uk/cce65fa58fa12d6ab23d149ec9cf60219fd33c66/116_0_1980_1188/500.jpg"},"isHosted":false,"pillarId":"pillar/news","pillarName":"News"},{"id":"us-news/2018/apr/08/florida-school-shooting-survivors-memorial-eagle-eye-magazine","type":"article","sectionId":"us-news","sectionName":"US news","webPublicationDate":"2018-04-08T21:10:12Z","webTitle":"Florida school shooting survivors release 'cathartic' memorial magazine","webUrl":"https://www.theguardian.com/us-news/2018/apr/08/florida-school-shooting-survivors-memorial-eagle-eye-magazine","apiUrl":"https://content.guardianapis.com/us-news/2018/apr/08/florida-school-shooting-survivors-memorial-eagle-eye-magazine","fields":{"thumbnail":"https://media.guim.co.uk/5d705da31213c7cdd7f3f52f3b984cb141f9e5fc/0_107_3000_1800/500.jpg"},"isHosted":false,"pillarId":"pillar/news","pillarName":"News"},{"id":"tv-and-radio/2018/apr/08/homeland-recap-season-7-episode-8-lies-amplifiers-fking-twitter","type":"article","sectionId":"tv-and-radio","sectionName":"Television & radio","webPublicationDate":"2018-04-08T21:00:40Z","webTitle":"Homeland recap: season 7, episode 8 – Lies, Amplifiers, F**king Twitter","webUrl":"https://www.theguardian.com/tv-and-radio/2018/apr/08/homeland-recap-season-7-episode-8-lies-amplifiers-fking-twitter","apiUrl":"https://content.guardianapis.com/tv-and-radio/2018/apr/08/homeland-recap-season-7-episode-8-lies-amplifiers-fking-twitter","fields":{"thumbnail":"https://media.guim.co.uk/6fa2eae848aca1b68187a98202141c6f4d6a9e0f/0_56_2850_1710/500.jpg"},"isHosted":false,"pillarId":"pillar/arts","pillarName":"Arts"},{"id":"uk-news/2018/apr/08/police-cuts-likely-contributed-to-rise-in-violent-leaked-report-reveals","type":"article","sectionId":"uk-news","sectionName":"UK news","webPublicationDate":"2018-04-08T21:00:40Z","webTitle":"Police cuts ‘likely contributed’ to rise in violent crime, leaked report reveals","webUrl":"https://www.theguardian.com/uk-news/2018/apr/08/police-cuts-likely-contributed-to-rise-in-violent-leaked-report-reveals","apiUrl":"https://content.guardianapis.com/uk-news/2018/apr/08/police-cuts-likely-contributed-to-rise-in-violent-leaked-report-reveals","fields":{"thumbnail":"https://media.guim.co.uk/27f676bd961f6038f73fba535ab8850650ad2396/0_122_5324_3194/500.jpg"},"isHosted":false,"pillarId":"pillar/news","pillarName":"News"}]}}