{"response":{"status":"ok","userTier":"developer","total":2081489,"startIndex":1,"pageSize":10,"currentPage":1,"pages":208149,"orderBy":"newest","results":[{"id":"global/live/2018/dec/16/liverpool-v-manchester-united-premier-league-live","type":"liveblog","sectionId":"football","sectionName":"Football","webPublicationDate":"2018-12-16T16:34:19Z","webTitle":"Liverpool v Manchester United: Premier League – live!","webUrl":"https://www.theguardian.com/global/live/2018/dec/16/liverpool-v-manchester-united-premier-league-live","apiUrl":"https://content.guardianapis.com/global/live/2018/dec/16/liverpool-v-manchester-united-premier-league-live","isHosted":false,"pillarId":"pillar/sport","pillarName":"Sport"},{"id":"stage/2018/dec/16/the-borrowers-review-mary-nortons-pintsize-family-make-raucous-fun","type":"article","sectionId":"stage","sectionName":"Stage","webPublicationDate":"2018-12-16T16:32:05Z","webTitle":"The Borrowers review – Mary Norton's pintsize family make raucous fun","webUrl":"https://www.theguardian.com/stage/2018/dec/16/the-borrowers-review-mary-nortons-pintsize-family-make-raucous-fun","apiUrl":"https://content.guardianapis.com/stage/2018/dec/16/the-borrowers-review-mary-nortons-pintsize-family-make-raucous-fun","isHosted":false,"pillarId":"pillar/arts","pillarName":"Arts"},{"id":"uk-news/2018/dec/16/boy-five-becomes-third-family-member-to-die-in-nottinghamshire-fire","type":"article","sectionId":"uk-news","sectionName":"UK news","webPublicationDate":"2018-12-16T16:27:00Z","webTitle":"Tributes paid to three family members killed in Nottinghamshire fire","webUrl":"https://www.theguardian.com/uk-news/2018/dec/16/boy-five-becomes-third-family-member-to-die-in-nottinghamshire-fire","apiUrl":"https://content.guardianapis.com/uk-news/2018/dec/16/boy-five-becomes-third-family-member-to-die-in-nottinghamshire-fire","isHosted":false,"pillarId":"pillar/news","pillarName":"News"},{"id":"society/2018/dec/16/windrush-lessons-not-learned-free-legal-service-jcwi-charity-appeal-2018","type":"article","sectionId":"society","sectionName":"Society","webPublicationDate":"2018-12-16T16:13:12Z","webTitle":"'What if they arrest me?': the legal teams saving people from unfair deportation","webUrl":"https://www.theguardian.com/society/2018/dec/16/windrush-lessons-not-learned-free-legal-service-jcwi-charity-appeal-2018","apiUrl":"https://content.guardianapis.com/society/2018/dec/16/windrush-lessons-not-learned-free-legal-service-jcwi-charity-appeal-2018","isHosted":false,"pillarId":"pillar/news","pillarName":"News"},{"id":"world/2018/dec/16/ortega-condemned-for-raids-on-ngos-and-media-in-nicaragua","type":"article","sectionId":"world","sectionName":"World news","webPublicationDate":"2018-12-16T16:09:11Z","webTitle":"Ortega condemned for raids on NGOs and media in Nicaragua","webUrl":"https://www.theguardian.com/world/2018/dec/16/ortega-condemned-for-raids-on-ngos-and-media-in-nicaragua","apiUrl":"https://content.guardianapis.com/world/2018/dec/16/ortega-condemned-for-raids-on-ngos-and-media-in-nicaragua","isHosted":false,"pillarId":"pillar/news","pillarName":"News"},{"id":"commentisfree/2018/dec/16/pankhurst-statue-manchester-suffrage-feminism-history","type":"article","sectionId":"commentisfree","sectionName":"Opinion","webPublicationDate":"2018-12-16T16:05:07Z","webTitle":"The new Pankhurst statue makes me proud of the unsung Manchester I grew up in | Anita Sethi","webUrl":"https://www.theguardian.com/commentisfree/2018/dec/16/pankhurst-statue-manchester-suffrage-feminism-history","apiUrl":"https://content.guardianapis.com/commentisfree/2018/dec/16/pankhurst-statue-manchester-suffrage-feminism-history","isHosted":false,"pillarId":"pillar/opinion","pillarName":"Opinion"},{"id":"commentisfree/2018/dec/16/every-year-at-christmas-i-become-a-terrible-teenager-now-ive-found-the-perfect-solution","type":"article","sectionId":"commentisfree","sectionName":"Opinion","webPublicationDate":"2018-12-16T16:00:44Z","webTitle":"Every year at Christmas, I become a terrible teenager. Now I’ve found the perfect solution | Arwa Mahdawi","webUrl":"https://www.theguardian.com/commentisfree/2018/dec/16/every-year-at-christmas-i-become-a-terrible-teenager-now-ive-found-the-perfect-solution","apiUrl":"https://content.guardianapis.com/commentisfree/2018/dec/16/every-year-at-christmas-i-become-a-terrible-teenager-now-ive-found-the-perfect-solution","isHosted":false,"pillarId":"pillar/opinion","pillarName":"Opinion"},{"id":"world/2018/dec/16/liberate-venezuela-from-maduro-urges-bolsonaro-ally","type":"article","sectionId":"world","sectionName":"World news","webPublicationDate":"2018-12-16T15:53:51Z","webTitle":"'Liberate' Venezuela from Maduro, urges Bolsonaro ally","webUrl":"https://www.theguardian.com/world/2018/dec/16/liberate-venezuela-from-maduro-urges-bolsonaro-ally","apiUrl":"https://content.guardianapis.com/world/2018/dec/16/liberate-venezuela-from-maduro-urges-bolsonaro-ally","isHosted":false,"pillarId":"pillar/news","pillarName":"News"},{"id":"world/2018/dec/15/anger-grows-death-guatemalan-migrant-girl-held-us","type":"article","sectionId":"world","sectionName":"World news","webPublicationDate":"2018-12-16T15:51:16Z","webTitle":"Anger grows after death of Guatemalan migrant girl held in US","webUrl":"https://www.theguardian.com/world/2018/dec/15/anger-grows-death-guatemalan-migrant-girl-held-us","apiUrl":"https://content.guardianapis.com/world/2018/dec/15/anger-grows-death-guatemalan-migrant-girl-held-us","isHosted":false,"pillarId":"pillar/news","pillarName":"News"},{"id":"football/live/2018/dec/16/southampton-arsenal-premier-league-live","type":"liveblog","sectionId":"football","sectionName":"Football","webPublicationDate":"2018-12-16T15:49:29Z","webTitle":"Southampton 3-2 Arsenal: Premier League – as it happened","webUrl":"https://www.theguardian.com/football/live/2018/dec/16/southampton-arsenal-premier-league-live","apiUrl":"https://content.guardianapis.com/football/live/2018/dec/16/southampton-arsenal-premier-league-live","isHosted":false,"pillarId":"pillar/sport","pillarName":"Sport"}]}}
