{"response":
  {"status":"ok","userTier":"developer","total":2045182,"startIndex":1,"pageSize":10,"currentPage":1,"pages":204519,"orderBy":"newest","results":
    [{
      "id":"sport/live/2018/jul/01/nba-free-agency-lebron-james-and-paul-georges-decisions-imminent",
      "type":"liveblog",
      "sectionId":"sport",
      "sectionName":"Sport",
      "webPublicationDate":"2018-07-01T11:16:26Z",
      "webTitle":"NBA free agency: LeBron James decision imminent as Paul George re-signs with Thunder",
      "webUrl":"https://www.theguardian.com/sport/live/2018/jul/01/nba-free-agency-lebron-james-and-paul-georges-decisions-imminent",
      "apiUrl":"https://content.guardianapis.com/sport/live/2018/jul/01/nba-free-agency-lebron-james-and-paul-georges-decisions-imminent",
      "fields":
        {"thumbnail":"https://media.guim.co.uk/191b818a4971ed285a07b5ac97cbf2afadab6821/0_246_5568_3341/500.jpg"},
      "isHosted":false,
      "pillarId":"pillar/sport",
      "pillarName":"Sport"},
    {
      "id":"football/live/2018/jul/01/world-cup-2018-messi-ronaldo-out-and-spain-v-russia-buildup-live",
      "type":"liveblog",
      "sectionId":"football",
      "sectionName":"Football",
      "webPublicationDate":"2018-07-01T11:13:50Z",
      "webTitle":"World Cup 2018: Messi, Ronaldo out and Spain v Russia buildup – live!",
      "webUrl":"https://www.theguardian.com/football/live/2018/jul/01/world-cup-2018-messi-ronaldo-out-and-spain-v-russia-buildup-live",
      "apiUrl":"https://content.guardianapis.com/football/live/2018/jul/01/world-cup-2018-messi-ronaldo-out-and-spain-v-russia-buildup-live",
      "fields":
        {"thumbnail":"https://media.guim.co.uk/ed7d9eee067c8190f9373e76bfb45964e2da1079/0_95_3120_1873/500.jpg"},
      "isHosted":false,
      "pillarId":"pillar/sport",
      "pillarName":"Sport"},
      {"id":"commentisfree/2018/jul/01/three-competing-visions-of-europe-threatening-to-tear-union-apart","type":"article","sectionId":"commentisfree","sectionName":"Opinion","webPublicationDate":"2018-07-01T11:00:38Z","webTitle":"Competing visions of Europe are threatening to tear the union apart | Hans Kundnani","webUrl":"https://www.theguardian.com/commentisfree/2018/jul/01/three-competing-visions-of-europe-threatening-to-tear-union-apart","apiUrl":"https://content.guardianapis.com/commentisfree/2018/jul/01/three-competing-visions-of-europe-threatening-to-tear-union-apart","fields":{"thumbnail":"https://media.guim.co.uk/020ee8627ca201244501a3286660333d74c58292/0_94_3000_1800/500.jpg"},"isHosted":false,"pillarId":"pillar/opinion","pillarName":"Opinion"},
      {"id":"books/2018/jul/01/browse-bookshop-city-books-hove","type":"article","sectionId":"books","sectionName":"Books","webPublicationDate":"2018-07-01T11:00:38Z","webTitle":"Browse a bookshop: City Books, Hove","webUrl":"https://www.theguardian.com/books/2018/jul/01/browse-bookshop-city-books-hove","apiUrl":"https://content.guardianapis.com/books/2018/jul/01/browse-bookshop-city-books-hove","fields":{"thumbnail":"https://media.guim.co.uk/c8f3d2a205450a61025630005f354b97df203e30/0_80_1928_1157/500.jpg"},"isHosted":false,"pillarId":"pillar/arts","pillarName":"Arts"},
      {"id":"stage/2018/jul/01/the-play-about-my-dad-review-boo-killebrew-hurricane-katrina","type":"article","sectionId":"stage","sectionName":"Stage","webPublicationDate":"2018-07-01T10:51:21Z","webTitle":"The Play About My Dad review – a father in the eye of the storm","webUrl":"https://www.theguardian.com/stage/2018/jul/01/the-play-about-my-dad-review-boo-killebrew-hurricane-katrina","apiUrl":"https://content.guardianapis.com/stage/2018/jul/01/the-play-about-my-dad-review-boo-killebrew-hurricane-katrina","fields":{"thumbnail":"https://media.guim.co.uk/7e512fb051d7f090d2bf9282831842553d572fba/131_79_3434_2061/500.jpg"},"isHosted":false,"pillarId":"pillar/arts","pillarName":"Arts"},
      {"id":"sport/2018/jul/01/eugenie-bouchard-must-surely-feel-lucky-despite-icy-pre-wimbledon-tone-tennis","type":"article","sectionId":"sport","sectionName":"Sport","webPublicationDate":"2018-07-01T10:35:03Z","webTitle":"Eugenie Bouchard must surely feel lucky despite icy pre-Wimbledon tone | Jacob Steinberg","webUrl":"https://www.theguardian.com/sport/2018/jul/01/eugenie-bouchard-must-surely-feel-lucky-despite-icy-pre-wimbledon-tone-tennis","apiUrl":"https://content.guardianapis.com/sport/2018/jul/01/eugenie-bouchard-must-surely-feel-lucky-despite-icy-pre-wimbledon-tone-tennis","fields":{"thumbnail":"https://media.guim.co.uk/61032a06496f2edc5dfb8f2cc75c08f208e1671d/175_30_3108_1865/500.jpg"},"isHosted":false,"pillarId":"pillar/sport","pillarName":"Sport"},
      {"id":"politics/2018/jul/01/nhs-preparing-for-disruption-to-supplies-from-no-deal-brexit","type":"article","sectionId":"politics","sectionName":"Politics","webPublicationDate":"2018-07-01T10:34:41Z","webTitle":"NHS preparing for disruption to supplies from no-deal Brexit","webUrl":"https://www.theguardian.com/politics/2018/jul/01/nhs-preparing-for-disruption-to-supplies-from-no-deal-brexit","apiUrl":"https://content.guardianapis.com/politics/2018/jul/01/nhs-preparing-for-disruption-to-supplies-from-no-deal-brexit","fields":{"thumbnail":"https://media.guim.co.uk/e22b6c87fae9b1dc472a9d15f38d5301806d6c8b/0_0_3000_1799/500.jpg"},"isHosted":false,"pillarId":"pillar/news","pillarName":"News"},
      {"id":"sport/2018/jul/01/chris-froome-blocked-signing-in-tour-de-france","type":"article","sectionId":"sport","sectionName":"Sport","webPublicationDate":"2018-07-01T10:33:09Z","webTitle":"Froome ‘blocked from signing in to Tour de France’ over unresolved drug appeal","webUrl":"https://www.theguardian.com/sport/2018/jul/01/chris-froome-blocked-signing-in-tour-de-france","apiUrl":"https://content.guardianapis.com/sport/2018/jul/01/chris-froome-blocked-signing-in-tour-de-france","fields":{"thumbnail":"https://media.guim.co.uk/39e96b4366a0be4b6aa29b4fcccc0f6d259624b3/0_87_2940_1764/500.jpg"},"isHosted":false,"pillarId":"pillar/sport","pillarName":"Sport"},
      {"id":"books/2018/jul/01/in-brief-book-reviews-the-terrible-in-found-my-tribe-florida","type":"article","sectionId":"books","sectionName":"Books","webPublicationDate":"2018-07-01T10:00:38Z","webTitle":"In brief: The Terrible; I Found My Tribe; Florida – reviews","webUrl":"https://www.theguardian.com/books/2018/jul/01/in-brief-book-reviews-the-terrible-in-found-my-tribe-florida","apiUrl":"https://content.guardianapis.com/books/2018/jul/01/in-brief-book-reviews-the-terrible-in-found-my-tribe-florida","fields":{"thumbnail":"https://media.guim.co.uk/973fdc397f88bd2c288cccad9f70ef91eb73cea7/0_62_3836_2302/500.jpg"},"isHosted":false,"pillarId":"pillar/arts","pillarName":"Arts"},
      {"id":"us-news/2018/jul/01/teachers-unions-supreme-court-janus-ruling","type":"article","sectionId":"us-news","sectionName":"US news","webPublicationDate":"2018-07-01T10:00:37Z","webTitle":"'Vilified too long': Teachers' unions fight back after supreme court ruling","webUrl":"https://www.theguardian.com/us-news/2018/jul/01/teachers-unions-supreme-court-janus-ruling","apiUrl":"https://content.guardianapis.com/us-news/2018/jul/01/teachers-unions-supreme-court-janus-ruling","fields":{"thumbnail":"https://media.guim.co.uk/34fa3f4f08552f110cc422b1058e307e6c15a126/210_334_4618_2771/500.jpg"},"isHosted":false,"pillarId":"pillar/news","pillarName":"News"}
    ]}
  }
