{
  "response": {
    "status": "ok",
    "userTier": "developer",
    "total": 2312324,
    "startIndex": 1,
    "pageSize": 10,
    "currentPage": 1,
    "pages": 231233,
    "orderBy": "newest",
    "results": [
      {
        "id": "football/live/2021/dec/04/wolves-v-liverpool-newcastle-v-burnley-clockwatch-live",
        "type": "liveblog",
        "sectionId": "football",
        "sectionName": "Football",
        "webPublicationDate": "2021-12-04T15:48:55Z",
        "webTitle": "Wolves v Liverpool, Newcastle v Burnley: clockwatch – live!",
        "webUrl": "https://www.theguardian.com/football/live/2021/dec/04/wolves-v-liverpool-newcastle-v-burnley-clockwatch-live",
        "apiUrl": "https://content.guardianapis.com/football/live/2021/dec/04/wolves-v-liverpool-newcastle-v-burnley-clockwatch-live",
        "isHosted": false,
        "pillarId": "pillar/sport",
        "pillarName": "Sport"
      },
      {
        "id": "world/live/2021/dec/04/covid-news-boris-johnson-reported-to-police-over-no-10-parties-south-korea-cases-and-deaths-at-new-high",
        "type": "liveblog",
        "sectionId": "world",
        "sectionName": "World news",
        "webPublicationDate": "2021-12-04T15:41:51Z",
        "webTitle": "Covid news: Boris Johnson reported to police over No 10 parties, South Korea cases and deaths at new high",
        "webUrl": "https://www.theguardian.com/world/live/2021/dec/04/covid-news-boris-johnson-reported-to-police-over-no-10-parties-south-korea-cases-and-deaths-at-new-high",
        "apiUrl": "https://content.guardianapis.com/world/live/2021/dec/04/covid-news-boris-johnson-reported-to-police-over-no-10-parties-south-korea-cases-and-deaths-at-new-high",
        "isHosted": false,
        "pillarId": "pillar/news",
        "pillarName": "News"
      },
      {
        "id": "sport/live/2021/dec/04/magnus-carlsen-v-ian-nepomniachtchi-world-chess-championship-game-7-live",
        "type": "liveblog",
        "sectionId": "sport",
        "sectionName": "Sport",
        "webPublicationDate": "2021-12-04T15:40:16Z",
        "webTitle": "Magnus Carlsen draws with Ian Nepomniachtchi in Game 7 of World Chess Championship – live!",
        "webUrl": "https://www.theguardian.com/sport/live/2021/dec/04/magnus-carlsen-v-ian-nepomniachtchi-world-chess-championship-game-7-live",
        "apiUrl": "https://content.guardianapis.com/sport/live/2021/dec/04/magnus-carlsen-v-ian-nepomniachtchi-world-chess-championship-game-7-live",
        "isHosted": false,
        "pillarId": "pillar/sport",
        "pillarName": "Sport"
      },
      {
        "id": "society/2021/dec/04/bereaved-families-demand-investigation-of-every-uk-gambling-linked-suicide",
        "type": "article",
        "sectionId": "society",
        "sectionName": "Society",
        "webPublicationDate": "2021-12-04T15:30:29Z",
        "webTitle": "Bereaved families demand investigation of every UK gambling-linked suicide",
        "webUrl": "https://www.theguardian.com/society/2021/dec/04/bereaved-families-demand-investigation-of-every-uk-gambling-linked-suicide",
        "apiUrl": "https://content.guardianapis.com/society/2021/dec/04/bereaved-families-demand-investigation-of-every-uk-gambling-linked-suicide",
        "isHosted": false,
        "pillarId": "pillar/news",
        "pillarName": "News"
      },
      {
        "id": "sport/2021/dec/04/bryony-frost-triumphs-tingle-creek-greaneteen-horse-racing",
        "type": "article",
        "sectionId": "sport",
        "sectionName": "Sport",
        "webPublicationDate": "2021-12-04T15:11:21Z",
        "webTitle": "Bryony Frost triumphs in Tingle Creek as Greaneteen grabs glory",
        "webUrl": "https://www.theguardian.com/sport/2021/dec/04/bryony-frost-triumphs-tingle-creek-greaneteen-horse-racing",
        "apiUrl": "https://content.guardianapis.com/sport/2021/dec/04/bryony-frost-triumphs-tingle-creek-greaneteen-horse-racing",
        "isHosted": false,
        "pillarId": "pillar/sport",
        "pillarName": "Sport"
      },
      {
        "id": "stage/2021/dec/04/robert-holman-playwright-dies-aged-69",
        "type": "article",
        "sectionId": "stage",
        "sectionName": "Stage",
        "webPublicationDate": "2021-12-04T15:09:59Z",
        "webTitle": "Robert Holman, ‘extraordinary and influential’ playwright, dies aged 69",
        "webUrl": "https://www.theguardian.com/stage/2021/dec/04/robert-holman-playwright-dies-aged-69",
        "apiUrl": "https://content.guardianapis.com/stage/2021/dec/04/robert-holman-playwright-dies-aged-69",
        "isHosted": false,
        "pillarId": "pillar/arts",
        "pillarName": "Arts"
      },
      {
        "id": "film/2021/dec/04/cmon-cmon-review-mike-mills-joaquin-phoenix-woody-norman-gaby-hoffmann",
        "type": "article",
        "sectionId": "film",
        "sectionName": "Film",
        "webPublicationDate": "2021-12-04T15:00:29Z",
        "webTitle": "C’mon C’mon review – Joaquin Phoenix and young co-star are extraordinary in road-trip drama",
        "webUrl": "https://www.theguardian.com/film/2021/dec/04/cmon-cmon-review-mike-mills-joaquin-phoenix-woody-norman-gaby-hoffmann",
        "apiUrl": "https://content.guardianapis.com/film/2021/dec/04/cmon-cmon-review-mike-mills-joaquin-phoenix-woody-norman-gaby-hoffmann",
        "isHosted": false,
        "pillarId": "pillar/arts",
        "pillarName": "Arts"
      },
      {
        "id": "education/2021/dec/04/can-you-say-squid-game-in-korean-tv-show-fuels-demand-for-east-asian-language-learning",
        "type": "article",
        "sectionId": "education",
        "sectionName": "Education",
        "webPublicationDate": "2021-12-04T15:00:28Z",
        "webTitle": "Can you say Squid Game in Korean? TV show fuels demand for east Asian language learning",
        "webUrl": "https://www.theguardian.com/education/2021/dec/04/can-you-say-squid-game-in-korean-tv-show-fuels-demand-for-east-asian-language-learning",
        "apiUrl": "https://content.guardianapis.com/education/2021/dec/04/can-you-say-squid-game-in-korean-tv-show-fuels-demand-for-east-asian-language-learning",
        "isHosted": false,
        "pillarId": "pillar/news",
        "pillarName": "News"
      },
      {
        "id": "culture/2021/dec/04/on-my-radar-adjoa-andohs-cultural-highlights",
        "type": "article",
        "sectionId": "culture",
        "sectionName": "Culture",
        "webPublicationDate": "2021-12-04T15:00:28Z",
        "webTitle": "On my radar: Adjoa Andoh’s cultural highlights",
        "webUrl": "https://www.theguardian.com/culture/2021/dec/04/on-my-radar-adjoa-andohs-cultural-highlights",
        "apiUrl": "https://content.guardianapis.com/culture/2021/dec/04/on-my-radar-adjoa-andohs-cultural-highlights",
        "isHosted": false,
        "pillarId": "pillar/arts",
        "pillarName": "Arts"
      },
      {
        "id": "commentisfree/2021/dec/04/olivia-rodrigo-spotify-tracking-all-smoke-and-mirrors",
        "type": "article",
        "sectionId": "commentisfree",
        "sectionName": "Opinion",
        "webPublicationDate": "2021-12-04T15:00:28Z",
        "webTitle": "Olivia Rodrigo: Spotify’s tracking is all about smoke and mirrors",
        "webUrl": "https://www.theguardian.com/commentisfree/2021/dec/04/olivia-rodrigo-spotify-tracking-all-smoke-and-mirrors",
        "apiUrl": "https://content.guardianapis.com/commentisfree/2021/dec/04/olivia-rodrigo-spotify-tracking-all-smoke-and-mirrors",
        "isHosted": false,
        "pillarId": "pillar/opinion",
        "pillarName": "Opinion"
      }
    ]
  }
}