{"response":{"status":"ok","userTier":"developer","total":117523,"startIndex":1,"pageSize":10,"currentPage":1,"pages":11753,"edition":{"id":"uk-news","webTitle":"UK news","webUrl":"https://www.theguardian.com/uk-news","apiUrl":"https://content.guardianapis.com/uk-news","code":"default"},"section":{"id":"uk-news","webTitle":"UK news","webUrl":"https://www.theguardian.com/uk-news","apiUrl":"https://content.guardianapis.com/uk-news","editions":[{"id":"uk-news","webTitle":"UK news","webUrl":"https://www.theguardian.com/uk-news","apiUrl":"https://content.guardianapis.com/uk-news","code":"default"}]},"results":[{"id":"uk-news/2017/nov/12/daily-express-owner-said-to-be-mounting-bid-to-take-over-national-lottery","type":"article","sectionId":"uk-news","sectionName":"UK news","webPublicationDate":"2017-11-12T18:42:41Z","webTitle":"Daily Express owner said to be mounting bid to take over National Lottery","webUrl":"https://www.theguardian.com/uk-news/2017/nov/12/daily-express-owner-said-to-be-mounting-bid-to-take-over-national-lottery","apiUrl":"https://content.guardianapis.com/uk-news/2017/nov/12/daily-express-owner-said-to-be-mounting-bid-to-take-over-national-lottery","fields":{"thumbnail":"https://media.guim.co.uk/7f5503043c6fb78baeebad4240083d48b235fbee/0_69_3000_1800/500.jpg"},"isHosted":false},{"id":"uk-news/2017/nov/12/racially-motivated-crimes-now-exceed-sectarian-ones-in-northern-ireland","type":"article","sectionId":"uk-news","sectionName":"UK news","webPublicationDate":"2017-11-12T18:30:25Z","webTitle":"Racially motivated crimes now exceed sectarian ones in Northern Ireland","webUrl":"https://www.theguardian.com/uk-news/2017/nov/12/racially-motivated-crimes-now-exceed-sectarian-ones-in-northern-ireland","apiUrl":"https://content.guardianapis.com/uk-news/2017/nov/12/racially-motivated-crimes-now-exceed-sectarian-ones-in-northern-ireland","fields":{"thumbnail":"https://media.guim.co.uk/e315c0bbf7eb4b8a3fb4e66a2e8cf64b94f2bced/0_208_4524_2715/500.jpg"},"isHosted":false},{"id":"uk-news/2017/nov/12/failure-to-publish-gaddafi-report-casts-doubt-on-intelligence-oversight","type":"article","sectionId":"uk-news","sectionName":"UK news","webPublicationDate":"2017-11-12T18:16:59Z","webTitle":"Failure to publish Gaddafi report casts doubt on intelligence oversight | Letters","webUrl":"https://www.theguardian.com/uk-news/2017/nov/12/failure-to-publish-gaddafi-report-casts-doubt-on-intelligence-oversight","apiUrl":"https://content.guardianapis.com/uk-news/2017/nov/12/failure-to-publish-gaddafi-report-casts-doubt-on-intelligence-oversight","fields":{"thumbnail":"https://media.guim.co.uk/d268d0446106d46578de40325c65dd8b1e6a2833/0_129_2056_1233/500.jpg"},"isHosted":false},{"id":"uk-news/2017/nov/12/pay-yr-ysgwrn-a-visit-to-see-the-black-chair-of-birkenhead","type":"article","sectionId":"uk-news","sectionName":"UK news","webPublicationDate":"2017-11-12T18:16:47Z","webTitle":"Pay Yr Ysgwrn a visit to see the Black Chair of Birkenhead | Brief letters","webUrl":"https://www.theguardian.com/uk-news/2017/nov/12/pay-yr-ysgwrn-a-visit-to-see-the-black-chair-of-birkenhead","apiUrl":"https://content.guardianapis.com/uk-news/2017/nov/12/pay-yr-ysgwrn-a-visit-to-see-the-black-chair-of-birkenhead","fields":{"thumbnail":"https://media.guim.co.uk/c81b91a5afdeeacd013437425b9af54f934015eb/0_384_5760_3456/500.jpg"},"isHosted":false},{"id":"uk-news/2017/nov/12/family-of-autistic-woman-killed-in-traffic-accident-demand-coroners-replacement-colette-mcculloch","type":"article","sectionId":"uk-news","sectionName":"UK news","webPublicationDate":"2017-11-12T16:46:46Z","webTitle":"Family of autistic woman killed in traffic accident demand coroner's replacement","webUrl":"https://www.theguardian.com/uk-news/2017/nov/12/family-of-autistic-woman-killed-in-traffic-accident-demand-coroners-replacement-colette-mcculloch","apiUrl":"https://content.guardianapis.com/uk-news/2017/nov/12/family-of-autistic-woman-killed-in-traffic-accident-demand-coroners-replacement-colette-mcculloch","fields":{"thumbnail":"https://media.guim.co.uk/71a756b0205d203414e0eed58e736ed074069a5a/0_274_1178_706/500.jpg"},"isHosted":false},{"id":"world/2017/nov/12/uk-braces-for-sub-zero-temperatures-as-first-snow-falls-in-the-north","type":"article","sectionId":"uk-news","sectionName":"UK news","webPublicationDate":"2017-11-12T16:21:17Z","webTitle":"UK braces for sub-zero temperatures as first snow falls in the north","webUrl":"https://www.theguardian.com/world/2017/nov/12/uk-braces-for-sub-zero-temperatures-as-first-snow-falls-in-the-north","apiUrl":"https://content.guardianapis.com/world/2017/nov/12/uk-braces-for-sub-zero-temperatures-as-first-snow-falls-in-the-north","fields":{"thumbnail":"https://media.guim.co.uk/f3cee19376f359212050b7438ecc81dc406104bf/0_20_3500_2102/500.jpg"},"isHosted":false},{"id":"uk-news/2017/nov/12/how-dropping-cigarette-butt-left-asylum-seeker-facing-risk-of-deportation","type":"article","sectionId":"uk-news","sectionName":"UK news","webPublicationDate":"2017-11-12T15:56:04Z","webTitle":"How dropping cigarette butt left asylum seeker with risk of deportation","webUrl":"https://www.theguardian.com/uk-news/2017/nov/12/how-dropping-cigarette-butt-left-asylum-seeker-facing-risk-of-deportation","apiUrl":"https://content.guardianapis.com/uk-news/2017/nov/12/how-dropping-cigarette-butt-left-asylum-seeker-facing-risk-of-deportation","fields":{"thumbnail":"https://media.guim.co.uk/d4b6db8af6e95b79d943eee7b2d79fa32587854f/301_656_881_529/500.jpg"},"isHosted":false},{"id":"uk-news/2017/nov/12/taxi-driver-stabbed-in-manchester-argument-over-fare-moss-side","type":"article","sectionId":"uk-news","sectionName":"UK news","webPublicationDate":"2017-11-12T15:19:48Z","webTitle":"Taxi driver stabbed in Manchester after argument over fare","webUrl":"https://www.theguardian.com/uk-news/2017/nov/12/taxi-driver-stabbed-in-manchester-argument-over-fare-moss-side","apiUrl":"https://content.guardianapis.com/uk-news/2017/nov/12/taxi-driver-stabbed-in-manchester-argument-over-fare-moss-side","fields":{"thumbnail":"https://media.guim.co.uk/a33635a0bbc0fe8befef4880150d8decfb0a667e/94_187_3208_1924/500.jpg"},"isHosted":false},{"id":"uk-news/2017/nov/12/bomb-alert-remembrance-sunday-omagh","type":"article","sectionId":"uk-news","sectionName":"UK news","webPublicationDate":"2017-11-12T12:12:44Z","webTitle":"Bomb alert disrupts Remembrance Sunday ceremony in Omagh","webUrl":"https://www.theguardian.com/uk-news/2017/nov/12/bomb-alert-remembrance-sunday-omagh","apiUrl":"https://content.guardianapis.com/uk-news/2017/nov/12/bomb-alert-remembrance-sunday-omagh","fields":{"thumbnail":"https://media.guim.co.uk/d6029f7b78961ca71552e21e075f9f358b4679bc/0_145_3600_2161/500.jpg"},"isHosted":false},{"id":"uk-news/2017/nov/12/captain-scott-antarctic-image-foretold-national-tragedy","type":"article","sectionId":"uk-news","sectionName":"UK news","webPublicationDate":"2017-11-12T00:05:39Z","webTitle":"Tired, frozen, beaten: image of Captain Scott’s expedition that foretold a tragedy","webUrl":"https://www.theguardian.com/uk-news/2017/nov/12/captain-scott-antarctic-image-foretold-national-tragedy","apiUrl":"https://content.guardianapis.com/uk-news/2017/nov/12/captain-scott-antarctic-image-foretold-national-tragedy","fields":{"thumbnail":"https://media.guim.co.uk/69bb0dadc4599a95caaee50670fb607c1bf14f19/0_559_5288_3173/500.jpg"},"isHosted":false}]}}
