{"response":{"status":"ok","userTier":"developer","total":179103,"startIndex":1,"pageSize":10,"currentPage":1,"pages":17911,"edition":{"id":"world","webTitle":"World news","webUrl":"https://www.theguardian.com/world","apiUrl":"https://content.guardianapis.com/world","code":"default"},"section":{"id":"world","webTitle":"World news","webUrl":"https://www.theguardian.com/world","apiUrl":"https://content.guardianapis.com/world","editions":[{"id":"world","webTitle":"World news","webUrl":"https://www.theguardian.com/world","apiUrl":"https://content.guardianapis.com/world","code":"default"}]},"results":[{"id":"world/2018/jul/01/film-maker-defends-use-of-footage-shot-by-al-qaida-terrorists","type":"article","sectionId":"world","sectionName":"World news","webPublicationDate":"2018-07-01T09:17:53Z","webTitle":"Film-maker defends use of footage shot by al-Qaida terrorists","webUrl":"https://www.theguardian.com/world/2018/jul/01/film-maker-defends-use-of-footage-shot-by-al-qaida-terrorists","apiUrl":"https://content.guardianapis.com/world/2018/jul/01/film-maker-defends-use-of-footage-shot-by-al-qaida-terrorists","isHosted":false,"pillarId":"pillar/news","pillarName":"News"},{"id":"world/2018/jul/01/mexico-election-vote-andres-manuel-lopez-obrador","type":"article","sectionId":"world","sectionName":"World news","webPublicationDate":"2018-07-01T06:00:36Z","webTitle":"Mexico election: voters head to polls as leftist Amlo expected to cruise to victory","webUrl":"https://www.theguardian.com/world/2018/jul/01/mexico-election-vote-andres-manuel-lopez-obrador","apiUrl":"https://content.guardianapis.com/world/2018/jul/01/mexico-election-vote-andres-manuel-lopez-obrador","isHosted":false,"pillarId":"pillar/news","pillarName":"News"},{"id":"world/2018/jul/01/napoleon-rock-star-portraits-for-sale","type":"article","sectionId":"world","sectionName":"World news","webPublicationDate":"2018-07-01T05:44:31Z","webTitle":"Family portraits give glimpse into Napoleon’s intimate life","webUrl":"https://www.theguardian.com/world/2018/jul/01/napoleon-rock-star-portraits-for-sale","apiUrl":"https://content.guardianapis.com/world/2018/jul/01/napoleon-rock-star-portraits-for-sale","isHosted":false,"pillarId":"pillar/news","pillarName":"News"},{"id":"world/2018/jul/01/refugees-niger-africa-eu-summit-border-policy-migrant-children","type":"article","sectionId":"world","sectionName":"World news","webPublicationDate":"2018-07-01T05:00:34Z","webTitle":"EU’s new refugee policy under fire as children stuck in limbo in Niger | Ruth Maclean","webUrl":"https://www.theguardian.com/world/2018/jul/01/refugees-niger-africa-eu-summit-border-policy-migrant-children","apiUrl":"https://content.guardianapis.com/world/2018/jul/01/refugees-niger-africa-eu-summit-border-policy-migrant-children","isHosted":false,"pillarId":"pillar/news","pillarName":"News"},{"id":"world/2018/jul/01/mh370-memorial-to-the-missing-is-put-on-hold","type":"article","sectionId":"world","sectionName":"World news","webPublicationDate":"2018-07-01T02:26:46Z","webTitle":"MH370: memorial to the missing is put on hold","webUrl":"https://www.theguardian.com/world/2018/jul/01/mh370-memorial-to-the-missing-is-put-on-hold","apiUrl":"https://content.guardianapis.com/world/2018/jul/01/mh370-memorial-to-the-missing-is-put-on-hold","isHosted":false,"pillarId":"pillar/news","pillarName":"News"},{"id":"world/live/2018/jun/30/trump-immigration-family-separation-protest-live-updates","type":"liveblog","sectionId":"world","sectionName":"World news","webPublicationDate":"2018-06-30T22:42:16Z","webTitle":"Protesters march against Trump immigration policies – as it happened","webUrl":"https://www.theguardian.com/world/live/2018/jun/30/trump-immigration-family-separation-protest-live-updates","apiUrl":"https://content.guardianapis.com/world/live/2018/jun/30/trump-immigration-family-separation-protest-live-updates","isHosted":false,"pillarId":"pillar/news","pillarName":"News"},{"id":"world/2018/jun/30/syria-southern-towns-surrender-to-assad-forces","type":"article","sectionId":"world","sectionName":"World news","webPublicationDate":"2018-06-30T20:23:55Z","webTitle":"Syria: southern towns surrender to Assad forces after thousands flee homes","webUrl":"https://www.theguardian.com/world/2018/jun/30/syria-southern-towns-surrender-to-assad-forces","apiUrl":"https://content.guardianapis.com/world/2018/jun/30/syria-southern-towns-surrender-to-assad-forces","isHosted":false,"pillarId":"pillar/news","pillarName":"News"},{"id":"world/2018/jun/30/captain-imran-khan-starts-run-elections-pakistan-army","type":"article","sectionId":"world","sectionName":"World news","webPublicationDate":"2018-06-30T17:43:25Z","webTitle":"Imran Khan starts race to lead Pakistan but can he please the ‘umpires’?","webUrl":"https://www.theguardian.com/world/2018/jun/30/captain-imran-khan-starts-run-elections-pakistan-army","apiUrl":"https://content.guardianapis.com/world/2018/jun/30/captain-imran-khan-starts-run-elections-pakistan-army","isHosted":false,"pillarId":"pillar/news","pillarName":"News"},{"id":"world/2018/jun/30/simone-veil-funeral-paris-pantheon","type":"article","sectionId":"world","sectionName":"World news","webPublicationDate":"2018-06-30T15:33:00Z","webTitle":"France pays tribute to Simone Veil with hero’s burial in the Panthéon","webUrl":"https://www.theguardian.com/world/2018/jun/30/simone-veil-funeral-paris-pantheon","apiUrl":"https://content.guardianapis.com/world/2018/jun/30/simone-veil-funeral-paris-pantheon","isHosted":false,"pillarId":"pillar/news","pillarName":"News"},{"id":"world/2018/jun/29/trump-protests-saturday-family-separations-ice-abortions-roe-v-wade","type":"article","sectionId":"world","sectionName":"World news","webPublicationDate":"2018-06-30T11:20:39Z","webTitle":"More than 700 anti-Trump protests planned across all 50 states","webUrl":"https://www.theguardian.com/world/2018/jun/29/trump-protests-saturday-family-separations-ice-abortions-roe-v-wade","apiUrl":"https://content.guardianapis.com/world/2018/jun/29/trump-protests-saturday-family-separations-ice-abortions-roe-v-wade","isHosted":false,"pillarId":"pillar/news","pillarName":"News"}],"editorsPicks":[{"id":"us-news/2018/jun/30/donald-trump-radical-left-democrats-protests-separations-ice-supreme-court","type":"article","sectionId":"us-news","sectionName":"US news","webPublicationDate":"2018-06-30T20:56:48Z","webTitle":"Thousands march against Trump and family separations policy","webUrl":"https://www.theguardian.com/us-news/2018/jun/30/donald-trump-radical-left-democrats-protests-separations-ice-supreme-court","apiUrl":"https://content.guardianapis.com/us-news/2018/jun/30/donald-trump-radical-left-democrats-protests-separations-ice-supreme-court","isHosted":false,"pillarId":"pillar/news","pillarName":"News"},{"id":"world/2018/jun/30/syria-southern-towns-surrender-to-assad-forces","type":"article","sectionId":"world","sectionName":"World news","webPublicationDate":"2018-06-30T20:23:55Z","webTitle":"Syria: southern towns surrender to Assad forces after thousands flee homes","webUrl":"https://www.theguardian.com/world/2018/jun/30/syria-southern-towns-surrender-to-assad-forces","apiUrl":"https://content.guardianapis.com/world/2018/jun/30/syria-southern-towns-surrender-to-assad-forces","isHosted":false,"pillarId":"pillar/news","pillarName":"News"},{"id":"us-news/2018/jun/30/rudy-giuliani-mek-iran-paris-rally","type":"article","sectionId":"us-news","sectionName":"US news","webPublicationDate":"2018-06-30T22:31:06Z","webTitle":"Rudy Giuliani calls for Iran regime change at rally linked to extreme group","webUrl":"https://www.theguardian.com/us-news/2018/jun/30/rudy-giuliani-mek-iran-paris-rally","apiUrl":"https://content.guardianapis.com/us-news/2018/jun/30/rudy-giuliani-mek-iran-paris-rally","isHosted":false,"pillarId":"pillar/news","pillarName":"News"},{"id":"uk-news/2018/jun/30/british-intelligence-officers-linked-to-man-waterboarded-83-times-mi6-cia-rendition","type":"article","sectionId":"uk-news","sectionName":"UK news","webPublicationDate":"2018-06-30T14:45:12Z","webTitle":"M16 put questions to prisoner waterboarded 83 times by CIA","webUrl":"https://www.theguardian.com/uk-news/2018/jun/30/british-intelligence-officers-linked-to-man-waterboarded-83-times-mi6-cia-rendition","apiUrl":"https://content.guardianapis.com/uk-news/2018/jun/30/british-intelligence-officers-linked-to-man-waterboarded-83-times-mi6-cia-rendition","isHosted":false,"pillarId":"pillar/news","pillarName":"News"},{"id":"world/2018/jun/30/captain-imran-khan-starts-run-elections-pakistan-army","type":"article","sectionId":"world","sectionName":"World news","webPublicationDate":"2018-06-30T17:43:25Z","webTitle":"Imran Khan starts race to lead Pakistan but can he please the ‘umpires’?","webUrl":"https://www.theguardian.com/world/2018/jun/30/captain-imran-khan-starts-run-elections-pakistan-army","apiUrl":"https://content.guardianapis.com/world/2018/jun/30/captain-imran-khan-starts-run-elections-pakistan-army","isHosted":false,"pillarId":"pillar/news","pillarName":"News"},{"id":"world/2018/jun/30/jamaica-to-boost-security-after-murders-of-returning-expats","type":"article","sectionId":"world","sectionName":"World news","webPublicationDate":"2018-06-30T08:19:42Z","webTitle":"Jamaica to boost security after murders of returning expats","webUrl":"https://www.theguardian.com/world/2018/jun/30/jamaica-to-boost-security-after-murders-of-returning-expats","apiUrl":"https://content.guardianapis.com/world/2018/jun/30/jamaica-to-boost-security-after-murders-of-returning-expats","isHosted":false,"pillarId":"pillar/news","pillarName":"News"},{"id":"us-news/2018/jun/30/us-ambassador-estonia-resigns-trump-policies-jim-melville","type":"article","sectionId":"us-news","sectionName":"US news","webPublicationDate":"2018-06-30T13:55:14Z","webTitle":"US ambassador to Estonia resigns over Trump policies and provocations","webUrl":"https://www.theguardian.com/us-news/2018/jun/30/us-ambassador-estonia-resigns-trump-policies-jim-melville","apiUrl":"https://content.guardianapis.com/us-news/2018/jun/30/us-ambassador-estonia-resigns-trump-policies-jim-melville","isHosted":false,"pillarId":"pillar/news","pillarName":"News"},{"id":"world/2018/jun/30/north-korea-still-secretly-enriching-uranium-say-us-officials","type":"article","sectionId":"world","sectionName":"World news","webPublicationDate":"2018-06-30T01:39:38Z","webTitle":"North Korea still secretly enriching uranium, say US officials","webUrl":"https://www.theguardian.com/world/2018/jun/30/north-korea-still-secretly-enriching-uranium-say-us-officials","apiUrl":"https://content.guardianapis.com/world/2018/jun/30/north-korea-still-secretly-enriching-uranium-say-us-officials","isHosted":false,"pillarId":"pillar/news","pillarName":"News"},{"id":"world/2018/jun/30/amlo-mexico-election-president-how-despair-fueled-campaign","type":"article","sectionId":"world","sectionName":"World news","webPublicationDate":"2018-06-30T06:30:03Z","webTitle":"'We're in the abyss': how despair in Mexico set 'Amlo' on verge of presidency","webUrl":"https://www.theguardian.com/world/2018/jun/30/amlo-mexico-election-president-how-despair-fueled-campaign","apiUrl":"https://content.guardianapis.com/world/2018/jun/30/amlo-mexico-election-president-how-despair-fueled-campaign","isHosted":false,"pillarId":"pillar/news","pillarName":"News"},{"id":"sport/2018/jun/30/tom-daley-dustin-lance-black-son-robert-ray","type":"article","sectionId":"sport","sectionName":"Sport","webPublicationDate":"2018-06-30T09:39:29Z","webTitle":"Tom Daley and Dustin Lance Black announce birth of their son","webUrl":"https://www.theguardian.com/sport/2018/jun/30/tom-daley-dustin-lance-black-son-robert-ray","apiUrl":"https://content.guardianapis.com/sport/2018/jun/30/tom-daley-dustin-lance-black-son-robert-ray","isHosted":false,"pillarId":"pillar/sport","pillarName":"Sport"},{"id":"world/2018/jun/29/unesco-names-three-new-world-heritage-sites","type":"article","sectionId":"world","sectionName":"World news","webPublicationDate":"2018-06-29T17:07:02Z","webTitle":"Unesco names three new world heritage sites","webUrl":"https://www.theguardian.com/world/2018/jun/29/unesco-names-three-new-world-heritage-sites","apiUrl":"https://content.guardianapis.com/world/2018/jun/29/unesco-names-three-new-world-heritage-sites","isHosted":false,"pillarId":"pillar/news","pillarName":"News"},{"id":"cities/2018/jun/27/benefit-or-burden-the-cities-trying-out-universal-basic-income","type":"article","sectionId":"cities","sectionName":"Cities","webPublicationDate":"2018-06-27T06:15:31Z","webTitle":"Benefit or burden? The cities trying out universal basic income","webUrl":"https://www.theguardian.com/cities/2018/jun/27/benefit-or-burden-the-cities-trying-out-universal-basic-income","apiUrl":"https://content.guardianapis.com/cities/2018/jun/27/benefit-or-burden-the-cities-trying-out-universal-basic-income","isHosted":false,"pillarId":"pillar/news","pillarName":"News"},{"id":"cities/2018/jun/26/another-outbreak-is-certain-are-cities-ready-for-the-next-superbug-epidemic-","type":"article","sectionId":"cities","sectionName":"Cities","webPublicationDate":"2018-06-26T06:15:25Z","webTitle":"‘Another outbreak is a certainty’: are we ready for a superbug epidemic?","webUrl":"https://www.theguardian.com/cities/2018/jun/26/another-outbreak-is-certain-are-cities-ready-for-the-next-superbug-epidemic-","apiUrl":"https://content.guardianapis.com/cities/2018/jun/26/another-outbreak-is-certain-are-cities-ready-for-the-next-superbug-epidemic-","isHosted":false,"pillarId":"pillar/news","pillarName":"News"},{"id":"uk-news/2018/jul/01/firefighters-from-seven-counties-fight-greater-manchester-moor-fires","type":"article","sectionId":"uk-news","sectionName":"UK news","webPublicationDate":"2018-07-01T12:45:51Z","webTitle":"Firefighters from seven counties fight Greater Manchester moor fires","webUrl":"https://www.theguardian.com/uk-news/2018/jul/01/firefighters-from-seven-counties-fight-greater-manchester-moor-fires","apiUrl":"https://content.guardianapis.com/uk-news/2018/jul/01/firefighters-from-seven-counties-fight-greater-manchester-moor-fires","isHosted":false,"pillarId":"pillar/news","pillarName":"News"},{"id":"politics/2018/jul/01/brexit-eu-accused-of-making-false-aid-funding-claims","type":"article","sectionId":"politics","sectionName":"Politics","webPublicationDate":"2018-07-01T13:00:40Z","webTitle":"Brexit: EU accused of making false claims over aid contracts","webUrl":"https://www.theguardian.com/politics/2018/jul/01/brexit-eu-accused-of-making-false-aid-funding-claims","apiUrl":"https://content.guardianapis.com/politics/2018/jul/01/brexit-eu-accused-of-making-false-aid-funding-claims","isHosted":false,"pillarId":"pillar/news","pillarName":"News"},{"id":"world/2018/jul/01/film-maker-defends-use-of-footage-shot-by-al-qaida-terrorists","type":"article","sectionId":"world","sectionName":"World news","webPublicationDate":"2018-07-01T09:17:53Z","webTitle":"Film-maker defends use of footage shot by al-Qaida terrorists","webUrl":"https://www.theguardian.com/world/2018/jul/01/film-maker-defends-use-of-footage-shot-by-al-qaida-terrorists","apiUrl":"https://content.guardianapis.com/world/2018/jul/01/film-maker-defends-use-of-footage-shot-by-al-qaida-terrorists","isHosted":false,"pillarId":"pillar/news","pillarName":"News"},{"id":"world/2018/jul/01/refugees-niger-africa-eu-summit-border-policy-migrant-children","type":"article","sectionId":"world","sectionName":"World news","webPublicationDate":"2018-07-01T05:00:34Z","webTitle":"EU’s new refugee policy under fire as children stuck in limbo in Niger | Ruth Maclean","webUrl":"https://www.theguardian.com/world/2018/jul/01/refugees-niger-africa-eu-summit-border-policy-migrant-children","apiUrl":"https://content.guardianapis.com/world/2018/jul/01/refugees-niger-africa-eu-summit-border-policy-migrant-children","isHosted":false,"pillarId":"pillar/news","pillarName":"News"},{"id":"world/2018/jul/01/mexico-election-vote-andres-manuel-lopez-obrador","type":"article","sectionId":"world","sectionName":"World news","webPublicationDate":"2018-07-01T06:00:36Z","webTitle":"Mexico election: voters head to polls as leftist Amlo expected to cruise to victory","webUrl":"https://www.theguardian.com/world/2018/jul/01/mexico-election-vote-andres-manuel-lopez-obrador","apiUrl":"https://content.guardianapis.com/world/2018/jul/01/mexico-election-vote-andres-manuel-lopez-obrador","isHosted":false,"pillarId":"pillar/news","pillarName":"News"}]}}
