{"response":{"status":"ok","userTier":"developer","total":2165162,"startIndex":1,"pageSize":10,"currentPage":1,"pages":216517,"orderBy":"newest","results":[{"id":"sport/2020/jan/12/european-champions-cup-rugby","type":"article","sectionId":"sport","sectionName":"Sport","webPublicationDate":"2020-01-12T20:00:44Z","webTitle":"Exeter carry the English standard but French clubs look a real force | Robert Kitson","webUrl":"https://www.theguardian.com/sport/2020/jan/12/european-champions-cup-rugby","apiUrl":"https://content.guardianapis.com/sport/2020/jan/12/european-champions-cup-rugby","isHosted":false,"pillarId":"pillar/sport","pillarName":"Sport"}]}}
