{"response":{"status":"ok","userTier":"developer","total":2031661,"startIndex":1,"pageSize":10,"currentPage":1,"pages":203167,"orderBy":"newest","results":[{"id":"commentisfree/2018/may/07/china-cracking-down-on-peppa-pig","type":"article","sectionId":"commentisfree","sectionName":"Opinion","webPublicationDate":"2018-05-07T08:58:38Z","webTitle":"Think it's funny that China is cracking down on Peppa Pig? Think again | Phoebe-Jane Boyd","webUrl":"https://www.theguardian.com/commentisfree/2018/may/07/china-cracking-down-on-peppa-pig","apiUrl":"https://content.guardianapis.com/commentisfree/2018/may/07/china-cracking-down-on-peppa-pig","isHosted":false,"pillarId":"pillar/opinion","pillarName":"Opinion"},{"id":"australia-news/2018/may/07/murray-darling-basin-plan-labor-to-decide-whether-it-will-back-key-changes","type":"article","sectionId":"australia-news","sectionName":"Australia news","webPublicationDate":"2018-05-07T08:47:52Z","webTitle":"Coalition and Labor strike deal over Murray-Darling basin plan","webUrl":"https://www.theguardian.com/australia-news/2018/may/07/murray-darling-basin-plan-labor-to-decide-whether-it-will-back-key-changes","apiUrl":"https://content.guardianapis.com/australia-news/2018/may/07/murray-darling-basin-plan-labor-to-decide-whether-it-will-back-key-changes","isHosted":false,"pillarId":"pillar/news","pillarName":"News"},{"id":"crosswords/crossword-blog/2018/may/07/crossword-blog-the-new-yorkers-second-crossword","type":"article","sectionId":"crosswords","sectionName":"Crosswords","webPublicationDate":"2018-05-07T08:45:10Z","webTitle":"Crossword blog: the New Yorker's second crossword","webUrl":"https://www.theguardian.com/crosswords/crossword-blog/2018/may/07/crossword-blog-the-new-yorkers-second-crossword","apiUrl":"https://content.guardianapis.com/crosswords/crossword-blog/2018/may/07/crossword-blog-the-new-yorkers-second-crossword","isHosted":false,"pillarId":"pillar/lifestyle","pillarName":"Lifestyle"},{"id":"environment/2018/may/07/adani-coal-losses-prompt-mining-company-to-shift-from-imported-coal","type":"article","sectionId":"environment","sectionName":"Environment","webPublicationDate":"2018-05-07T08:30:20Z","webTitle":"Adani losses prompt mining company to shift away from imported coal","webUrl":"https://www.theguardian.com/environment/2018/may/07/adani-coal-losses-prompt-mining-company-to-shift-from-imported-coal","apiUrl":"https://content.guardianapis.com/environment/2018/may/07/adani-coal-losses-prompt-mining-company-to-shift-from-imported-coal","isHosted":false,"pillarId":"pillar/news","pillarName":"News"},{"id":"music/2018/may/07/kanye-west-announces-architecture-arm-to-his-company-yeezy-home","type":"article","sectionId":"music","sectionName":"Music","webPublicationDate":"2018-05-07T08:21:28Z","webTitle":"Kanye West announces architecture arm to his company Yeezy","webUrl":"https://www.theguardian.com/music/2018/may/07/kanye-west-announces-architecture-arm-to-his-company-yeezy-home","apiUrl":"https://content.guardianapis.com/music/2018/may/07/kanye-west-announces-architecture-arm-to-his-company-yeezy-home","isHosted":false,"pillarId":"pillar/arts","pillarName":"Arts"},{"id":"film/filmblog/2018/may/07/south-east-london-nil-by-mouth-bromley-boys-thor-2-six","type":"article","sectionId":"film","sectionName":"Film","webPublicationDate":"2018-05-07T08:17:18Z","webTitle":"The Bromley contingent: the films from London's forgotten corner","webUrl":"https://www.theguardian.com/film/filmblog/2018/may/07/south-east-london-nil-by-mouth-bromley-boys-thor-2-six","apiUrl":"https://content.guardianapis.com/film/filmblog/2018/may/07/south-east-london-nil-by-mouth-bromley-boys-thor-2-six","isHosted":false,"pillarId":"pillar/arts","pillarName":"Arts"},{"id":"lifeandstyle/the-running-blog/2018/may/07/how-was-your-weekend-running","type":"article","sectionId":"lifeandstyle","sectionName":"Life and style","webPublicationDate":"2018-05-07T08:05:19Z","webTitle":"How was your weekend running?","webUrl":"https://www.theguardian.com/lifeandstyle/the-running-blog/2018/may/07/how-was-your-weekend-running","apiUrl":"https://content.guardianapis.com/lifeandstyle/the-running-blog/2018/may/07/how-was-your-weekend-running","isHosted":false,"pillarId":"pillar/lifestyle","pillarName":"Lifestyle"},{"id":"football/2018/may/07/football-transfer-rumours-anthony-martial-to-juventus-or-chelsea","type":"article","sectionId":"football","sectionName":"Football","webPublicationDate":"2018-05-07T08:04:35Z","webTitle":"Football transfer rumours: Anthony Martial to Juventus or Chelsea?","webUrl":"https://www.theguardian.com/football/2018/may/07/football-transfer-rumours-anthony-martial-to-juventus-or-chelsea","apiUrl":"https://content.guardianapis.com/football/2018/may/07/football-transfer-rumours-anthony-martial-to-juventus-or-chelsea","isHosted":false,"pillarId":"pillar/sport","pillarName":"Sport"},{"id":"football/2018/may/07/jurgen-klopp-strain-extreme-late-swing","type":"article","sectionId":"football","sectionName":"Football","webPublicationDate":"2018-05-07T07:59:44Z","webTitle":"Jürgen Klopp shows signs of strain at prospect of extreme late swing | Barney Ronay","webUrl":"https://www.theguardian.com/football/2018/may/07/jurgen-klopp-strain-extreme-late-swing","apiUrl":"https://content.guardianapis.com/football/2018/may/07/jurgen-klopp-strain-extreme-late-swing","isHosted":false,"pillarId":"pillar/sport","pillarName":"Sport"},{"id":"sport/blog/2018/may/07/saracens-focus-premiership-title-exeter","type":"article","sectionId":"sport","sectionName":"Sport","webPublicationDate":"2018-05-07T07:59:44Z","webTitle":"Saracens turn focus on recapturing Premiership title from Exeter | Robert Kitson","webUrl":"https://www.theguardian.com/sport/blog/2018/may/07/saracens-focus-premiership-title-exeter","apiUrl":"https://content.guardianapis.com/sport/blog/2018/may/07/saracens-focus-premiership-title-exeter","isHosted":false,"pillarId":"pillar/sport","pillarName":"Sport"}]}}
