{"response":{"status":"ok","userTier":"developer","total":25039,"startIndex":1,"pageSize":10,"currentPage":1,"pages":2504,"edition":{"id":"news","webTitle":"News","webUrl":"https://www.theguardian.com/news","apiUrl":"https://content.guardianapis.com/news","code":"default"},"section":{"id":"news","webTitle":"News","webUrl":"https://www.theguardian.com/news","apiUrl":"https://content.guardianapis.com/news","editions":[{"id":"news","webTitle":"News","webUrl":"https://www.theguardian.com/news","apiUrl":"https://content.guardianapis.com/news","code":"default"}]},"results":[{"id":"news/2019/dec/01/billionaires-only-please-london-vault-for-the-ultra-rich-opens-its-doors","type":"article","sectionId":"news","sectionName":"News","webPublicationDate":"2019-12-01T13:01:18Z","webTitle":"Billionaires only, please! London vault for the ultra-rich opens","webUrl":"https://www.theguardian.com/news/2019/dec/01/billionaires-only-please-london-vault-for-the-ultra-rich-opens-its-doors","apiUrl":"https://content.guardianapis.com/news/2019/dec/01/billionaires-only-please-london-vault-for-the-ultra-rich-opens-its-doors","isHosted":false,"pillarId":"pillar/news","pillarName":"News"},{"id":"news/2019/dec/01/for-the-record-corrections","type":"article","sectionId":"news","sectionName":"News","webPublicationDate":"2019-12-01T05:59:01Z","webTitle":"For the record","webUrl":"https://www.theguardian.com/news/2019/dec/01/for-the-record-corrections","apiUrl":"https://content.guardianapis.com/news/2019/dec/01/for-the-record-corrections","isHosted":false,"pillarId":"pillar/news","pillarName":"News"},{"id":"news/2019/nov/29/weatherwatch-an-autumn-of-extreme-contrasts","type":"article","sectionId":"news","sectionName":"News","webPublicationDate":"2019-11-29T21:30:17Z","webTitle":"Weatherwatch: an autumn of extreme contrasts","webUrl":"https://www.theguardian.com/news/2019/nov/29/weatherwatch-an-autumn-of-extreme-contrasts","apiUrl":"https://content.guardianapis.com/news/2019/nov/29/weatherwatch-an-autumn-of-extreme-contrasts","isHosted":false,"pillarId":"pillar/news","pillarName":"News"},{"id":"news/2019/nov/29/corrections-and-clarifications","type":"article","sectionId":"news","sectionName":"News","webPublicationDate":"2019-11-29T21:00:16Z","webTitle":"Corrections and clarifications","webUrl":"https://www.theguardian.com/news/2019/nov/29/corrections-and-clarifications","apiUrl":"https://content.guardianapis.com/news/2019/nov/29/corrections-and-clarifications","isHosted":false,"pillarId":"pillar/news","pillarName":"News"},{"id":"news/2019/nov/29/johnson-did-not-keep-word-to-free-nazanin-zaghari-ratcliffe-says-husband","type":"article","sectionId":"news","sectionName":"News","webPublicationDate":"2019-11-29T11:59:50Z","webTitle":"Johnson 'did not keep word' to free Nazanin Zaghari-Ratcliffe","webUrl":"https://www.theguardian.com/news/2019/nov/29/johnson-did-not-keep-word-to-free-nazanin-zaghari-ratcliffe-says-husband","apiUrl":"https://content.guardianapis.com/news/2019/nov/29/johnson-did-not-keep-word-to-free-nazanin-zaghari-ratcliffe-says-husband","isHosted":false,"pillarId":"pillar/news","pillarName":"News"},{"id":"news/2019/nov/28/corrections-and-clarifications","type":"article","sectionId":"news","sectionName":"News","webPublicationDate":"2019-11-28T21:00:48Z","webTitle":"Corrections and clarifications","webUrl":"https://www.theguardian.com/news/2019/nov/28/corrections-and-clarifications","apiUrl":"https://content.guardianapis.com/news/2019/nov/28/corrections-and-clarifications","isHosted":false,"pillarId":"pillar/news","pillarName":"News"},{"id":"news/datablog/2019/nov/28/sticky-or-magnetic-which-us-states-attract-people-and-which-do-they-leave","type":"article","sectionId":"news","sectionName":"News","webPublicationDate":"2019-11-28T08:00:32Z","webTitle":"Sticky or magnetic? Which states attract people and which do they leave? | Mona Chalabi","webUrl":"https://www.theguardian.com/news/datablog/2019/nov/28/sticky-or-magnetic-which-us-states-attract-people-and-which-do-they-leave","apiUrl":"https://content.guardianapis.com/news/datablog/2019/nov/28/sticky-or-magnetic-which-us-states-attract-people-and-which-do-they-leave","isHosted":false,"pillarId":"pillar/news","pillarName":"News"},{"id":"news/2019/nov/27/wildfires-in-australia-could-also-be-shaping-the-weather","type":"article","sectionId":"news","sectionName":"News","webPublicationDate":"2019-11-27T21:30:19Z","webTitle":"Wildfires in Australia could also be shaping the weather","webUrl":"https://www.theguardian.com/news/2019/nov/27/wildfires-in-australia-could-also-be-shaping-the-weather","apiUrl":"https://content.guardianapis.com/news/2019/nov/27/wildfires-in-australia-could-also-be-shaping-the-weather","isHosted":false,"pillarId":"pillar/news","pillarName":"News"},{"id":"news/2019/nov/27/corrections-and-clarifications","type":"article","sectionId":"news","sectionName":"News","webPublicationDate":"2019-11-27T21:00:19Z","webTitle":"Corrections and clarifications","webUrl":"https://www.theguardian.com/news/2019/nov/27/corrections-and-clarifications","apiUrl":"https://content.guardianapis.com/news/2019/nov/27/corrections-and-clarifications","isHosted":false,"pillarId":"pillar/news","pillarName":"News"},{"id":"news/2019/nov/27/labour-antisemitism-and-the-chief-rabbi","type":"article","sectionId":"news","sectionName":"News","webPublicationDate":"2019-11-27T18:46:10Z","webTitle":"Labour, antisemitism and the chief rabbi | Letters","webUrl":"https://www.theguardian.com/news/2019/nov/27/labour-antisemitism-and-the-chief-rabbi","apiUrl":"https://content.guardianapis.com/news/2019/nov/27/labour-antisemitism-and-the-chief-rabbi","isHosted":false,"pillarId":"pillar/news","pillarName":"News"}]}}
