{
"response": {
"status": "ok",
"userTier": "developer",
"total": 95439,
"startIndex": 1,
"pageSize": 10,
"currentPage": 1,
"pages": 9544,
"orderBy": "newest",
"results": [
{
"id": "politics/2017/dec/10/boris-johnson-iran-nazanin-zaghari-ratcliffe-talks-analysis",
"type": "article",
"sectionId": "politics",
"sectionName": "Politics",
"webPublicationDate": "2017-12-10T19:00:23Z",
"webTitle": "Boris Johnson fails to access inner layers of Iran's 'Russian doll' | Patrick Wintour",
"webUrl": "https://www.theguardian.com/politics/2017/dec/10/boris-johnson-iran-nazanin-zaghari-ratcliffe-talks-analysis",
"apiUrl": "https://content.guardianapis.com/politics/2017/dec/10/boris-johnson-iran-nazanin-zaghari-ratcliffe-talks-analysis",
"fields": {
"thumbnail": "https://media.guim.co.uk/8a98c0623b56aadde28ce7b61965644379b7f421/0_41_3000_1800/500.jpg"
},
"isHosted": false,
"pillarId": "pillar/news",
"pillarName": "News"
},
{
"id": "politics/2017/dec/10/portugal-shows-the-way-ahead-on-drugs-policy",
"type": "article",
"sectionId": "politics",
"sectionName": "Politics",
"webPublicationDate": "2017-12-10T18:49:39Z",
"webTitle": "Portugal shows the way ahead on drugs policy | Letters",
"webUrl": "https://www.theguardian.com/politics/2017/dec/10/portugal-shows-the-way-ahead-on-drugs-policy",
"apiUrl": "https://content.guardianapis.com/politics/2017/dec/10/portugal-shows-the-way-ahead-on-drugs-policy",
"fields": {
"thumbnail": "https://media.guim.co.uk/fcd9c0b00a938a95b16610cef6a08c99eb620df4/0_327_5906_3544/500.jpg"
},
"isHosted": false,
"pillarId": "pillar/news",
"pillarName": "News"
},
{
"id": "politics/2017/dec/10/carl-sargeant-son-hopes-to-stand-for-labour-in-fathers-former-seat",
"type": "article",
"sectionId": "politics",
"sectionName": "Politics",
"webPublicationDate": "2017-12-10T15:38:59Z",
"webTitle": "Carl Sargeant's son hopes to stand for Labour in father's former seat",
"webUrl": "https://www.theguardian.com/politics/2017/dec/10/carl-sargeant-son-hopes-to-stand-for-labour-in-fathers-former-seat",
"apiUrl": "https://content.guardianapis.com/politics/2017/dec/10/carl-sargeant-son-hopes-to-stand-for-labour-in-fathers-former-seat",
"fields": {
"thumbnail": "https://media.guim.co.uk/df34199d189ec98448812ab5816605b81d8b2e62/1307_322_1647_988/500.jpg"
},
"isHosted": false,
"pillarId": "pillar/news",
"pillarName": "News"
},
{
"id": "politics/2017/dec/10/labour-backs-easy-movement-of-eu-workers-after-brexit-says-keir-starmer",
"type": "article",
"sectionId": "politics",
"sectionName": "Politics",
"webPublicationDate": "2017-12-10T14:03:25Z",
"webTitle": "Labour backs 'easy movement' of EU workers after Brexit, says Keir Starmer",
"webUrl": "https://www.theguardian.com/politics/2017/dec/10/labour-backs-easy-movement-of-eu-workers-after-brexit-says-keir-starmer",
"apiUrl": "https://content.guardianapis.com/politics/2017/dec/10/labour-backs-easy-movement-of-eu-workers-after-brexit-says-keir-starmer",
"fields": {
"thumbnail": "https://media.guim.co.uk/6e4e992bfd8f55a70996e39a58cc3981e1695fec/0_113_3000_1800/500.jpg"
},
"isHosted": false,
"pillarId": "pillar/news",
"pillarName": "News"
},
{
"id": "politics/2017/dec/10/no-deal-brexit-odds-dropped-dramatically-david-davis",
"type": "article",
"sectionId": "politics",
"sectionName": "Politics",
"webPublicationDate": "2017-12-10T13:46:55Z",
"webTitle": "Chances of no-deal Brexit have 'dropped dramatically' - David Davis",
"webUrl": "https://www.theguardian.com/politics/2017/dec/10/no-deal-brexit-odds-dropped-dramatically-david-davis",
"apiUrl": "https://content.guardianapis.com/politics/2017/dec/10/no-deal-brexit-odds-dropped-dramatically-david-davis",
"fields": {
"thumbnail": "https://media.guim.co.uk/7ab8e0bb30dec546a2e798934e7a3cf8e06a50c3/0_188_3000_1799/500.jpg"
},
"isHosted": false,
"pillarId": "pillar/news",
"pillarName": "News"
},
{
"id": "politics/2017/dec/10/labour-urges-action-to-improve-voting-among-uk-homeless",
"type": "article",
"sectionId": "politics",
"sectionName": "Politics",
"webPublicationDate": "2017-12-10T12:52:21Z",
"webTitle": "Labour urges action to improve voting among UK homeless",
"webUrl": "https://www.theguardian.com/politics/2017/dec/10/labour-urges-action-to-improve-voting-among-uk-homeless",
"apiUrl": "https://content.guardianapis.com/politics/2017/dec/10/labour-urges-action-to-improve-voting-among-uk-homeless",
"fields": {
"thumbnail": "https://media.guim.co.uk/c0146bb4baffba758d0fab6e9b9f726e03c881f8/0_242_4500_2700/500.jpg"
},
"isHosted": false,
"pillarId": "pillar/news",
"pillarName": "News"
},
{
"id": "theobserver/2017/dec/10/letters-ireland-border-issues-brexit",
"type": "article",
"sectionId": "politics",
"sectionName": "Politics",
"webPublicationDate": "2017-12-10T00:05:21Z",
"webTitle": "Brexit ultras don’t give a damn about our neighbours | Letters",
"webUrl": "https://www.theguardian.com/theobserver/2017/dec/10/letters-ireland-border-issues-brexit",
"apiUrl": "https://content.guardianapis.com/theobserver/2017/dec/10/letters-ireland-border-issues-brexit",
"fields": {
"thumbnail": "https://media.guim.co.uk/66faf3a660463c9455ac3956917ab7afc4ea3ced/0_117_5284_3170/500.jpg"
},
"isHosted": false,
"pillarId": "pillar/news",
"pillarName": "News"
},
{
"id": "politics/2017/dec/10/kezia-dugdale-scotland-labour-im-a-celebrity-jungle-to-bearpit",
"type": "article",
"sectionId": "politics",
"sectionName": "Politics",
"webPublicationDate": "2017-12-10T00:04:21Z",
"webTitle": "After snakes and grubs, Kezia Dugdale steps out of the jungle into the bearpit",
"webUrl": "https://www.theguardian.com/politics/2017/dec/10/kezia-dugdale-scotland-labour-im-a-celebrity-jungle-to-bearpit",
"apiUrl": "https://content.guardianapis.com/politics/2017/dec/10/kezia-dugdale-scotland-labour-im-a-celebrity-jungle-to-bearpit",
"fields": {
"thumbnail": "https://media.guim.co.uk/3759a9ac6bbb102c383455ec87443ab981fad894/0_209_4128_2477/500.jpg"
},
"isHosted": false,
"pillarId": "pillar/news",
"pillarName": "News"
},
{
"id": "politics/2017/dec/09/global-powers-lobby-to-stop-special-brexit-deal-for-uk",
"type": "article",
"sectionId": "politics",
"sectionName": "Politics",
"webPublicationDate": "2017-12-09T21:30:50Z",
"webTitle": "Global powers lobby to stop special Brexit deal for UK\r\n",
"webUrl": "https://www.theguardian.com/politics/2017/dec/09/global-powers-lobby-to-stop-special-brexit-deal-for-uk",
"apiUrl": "https://content.guardianapis.com/politics/2017/dec/09/global-powers-lobby-to-stop-special-brexit-deal-for-uk",
"fields": {
"thumbnail": "https://media.guim.co.uk/a64fbccc0bd8622761cb74c974419f65e4e58fc5/0_163_4236_2542/500.jpg"
},
"isHosted": false,
"pillarId": "pillar/news",
"pillarName": "News"
},
{
"id": "politics/2017/dec/09/theresa-may-faces-first-brexit-defeat-parliament-rebels",
"type": "article",
"sectionId": "politics",
"sectionName": "Politics",
"webPublicationDate": "2017-12-09T21:30:18Z",
"webTitle": "Theresa May faces first Brexit bill defeat, say Commons rebels",
"webUrl": "https://www.theguardian.com/politics/2017/dec/09/theresa-may-faces-first-brexit-defeat-parliament-rebels",
"apiUrl": "https://content.guardianapis.com/politics/2017/dec/09/theresa-may-faces-first-brexit-defeat-parliament-rebels",
"fields": {
"thumbnail": "https://media.guim.co.uk/7c9d71b057a5d788f9944c7acaa34f410a08ac9c/65_0_3159_1896/500.jpg"
},
"isHosted": false,
"pillarId": "pillar/news",
"pillarName": "News"
}
]
}
}