var mockResponse =
{"response":{"status":"ok","userTier":"developer","total":1987208,"startIndex":1,"pageSize":10,"currentPage":1,"pages":198721,"orderBy":"newest","results":[{"id":"football/blog/2017/jan/16/premier-league-10-talking-points-southampton-manchester-city","type":"article","sectionId":"football","sectionName":"Football","webPublicationDate":"2017-10-16T09:00:00Z","webTitle":"Premier League: 10 talking points from the weekend’s action","webUrl":"https://www.theguardian.com/football/blog/2017/jan/16/premier-league-10-talking-points-southampton-manchester-city","apiUrl":"https://content.guardianapis.com/football/blog/2017/jan/16/premier-league-10-talking-points-southampton-manchester-city","isHosted":false},{"id":"australia-news/live/2017/oct/16/parliament-turnbull-coalition-politics-live","type":"liveblog","sectionId":"australia-news","sectionName":"Australia news","webPublicationDate":"2017-10-15T21:57:05Z","webTitle":"Parliament dominated by energy, with one eye on the high court - politics live","webUrl":"https://www.theguardian.com/australia-news/live/2017/oct/16/parliament-turnbull-coalition-politics-live","apiUrl":"https://content.guardianapis.com/australia-news/live/2017/oct/16/parliament-turnbull-coalition-politics-live","isHosted":false},{"id":"us-news/2017/oct/15/bannon-indicates-trumps-aca-strategy-blow-that-thing-up","type":"article","sectionId":"us-news","sectionName":"US news","webPublicationDate":"2017-10-15T21:41:06Z","webTitle":"Bannon says Trump will 'blow up' Obamacare as subsidies cut stokes fires","webUrl":"https://www.theguardian.com/us-news/2017/oct/15/bannon-indicates-trumps-aca-strategy-blow-that-thing-up","apiUrl":"https://content.guardianapis.com/us-news/2017/oct/15/bannon-indicates-trumps-aca-strategy-blow-that-thing-up","isHosted":false},{"id":"football/2017/oct/15/watford-arsenal-mesut-ozil-recovery-premier-league","type":"article","sectionId":"football","sectionName":"Football","webPublicationDate":"2017-10-15T21:30:41Z","webTitle":"‘Smell of blood’ after Mesut Özil’s entry stirs Watford to victory | Simon Burnton","webUrl":"https://www.theguardian.com/football/2017/oct/15/watford-arsenal-mesut-ozil-recovery-premier-league","apiUrl":"https://content.guardianapis.com/football/2017/oct/15/watford-arsenal-mesut-ozil-recovery-premier-league","isHosted":false},{"id":"football/2017/oct/15/pep-guardiola-manchester-city-balance-stoke","type":"article","sectionId":"football","sectionName":"Football","webPublicationDate":"2017-10-15T21:30:41Z","webTitle":"Pep Guardiola says Manchester City have found killer touch this season","webUrl":"https://www.theguardian.com/football/2017/oct/15/pep-guardiola-manchester-city-balance-stoke","apiUrl":"https://content.guardianapis.com/football/2017/oct/15/pep-guardiola-manchester-city-balance-stoke","isHosted":false},{"id":"football/2017/oct/15/chelsea-face-difficult-season-fighting-four-fronts-antonio-conte","type":"article","sectionId":"football","sectionName":"Football","webPublicationDate":"2017-10-15T21:30:41Z","webTitle":"Unhappy Antonio Conte questions Chelsea’s ability to defend their title","webUrl":"https://www.theguardian.com/football/2017/oct/15/chelsea-face-difficult-season-fighting-four-fronts-antonio-conte","apiUrl":"https://content.guardianapis.com/football/2017/oct/15/chelsea-face-difficult-season-fighting-four-fronts-antonio-conte","isHosted":false},{"id":"football/2017/oct/15/romelu-lukaku-finds-mindset-manchester-united-win-all-time-at-all-costs","type":"article","sectionId":"football","sectionName":"Football","webPublicationDate":"2017-10-15T21:30:41Z","webTitle":"Manchester United’s Romelu Lukaku insists he is no flat-track bully","webUrl":"https://www.theguardian.com/football/2017/oct/15/romelu-lukaku-finds-mindset-manchester-united-win-all-time-at-all-costs","apiUrl":"https://content.guardianapis.com/football/2017/oct/15/romelu-lukaku-finds-mindset-manchester-united-win-all-time-at-all-costs","isHosted":false},{"id":"football/blog/2017/oct/15/wilfried-zaha-nothing-to-be-scared-of-crystal-palace-chelsea-roy-hodgson","type":"article","sectionId":"football","sectionName":"Football","webPublicationDate":"2017-10-15T21:30:41Z","webTitle":"Impressive Wilfried Zaha plays with ‘nothing to be scared of’ for Palace | Jacob Steinberg","webUrl":"https://www.theguardian.com/football/blog/2017/oct/15/wilfried-zaha-nothing-to-be-scared-of-crystal-palace-chelsea-roy-hodgson","apiUrl":"https://content.guardianapis.com/football/blog/2017/oct/15/wilfried-zaha-nothing-to-be-scared-of-crystal-palace-chelsea-roy-hodgson","isHosted":false},{"id":"australia-news/2017/oct/16/citizenship-bill-dead-in-the-water-with-nxt-calling-for-it-to-be-scrapped","type":"article","sectionId":"australia-news","sectionName":"Australia news","webPublicationDate":"2017-10-15T21:19:09Z","webTitle":"Citizenship bill dead in the water with NXT calling for it to be scrapped","webUrl":"https://www.theguardian.com/australia-news/2017/oct/16/citizenship-bill-dead-in-the-water-with-nxt-calling-for-it-to-be-scrapped","apiUrl":"https://content.guardianapis.com/australia-news/2017/oct/16/citizenship-bill-dead-in-the-water-with-nxt-calling-for-it-to-be-scrapped","isHosted":false},{"id":"uk-news/2017/oct/15/exocet-missile-how-sinking-hms-sheffield-made-famous","type":"article","sectionId":"uk-news","sectionName":"UK news","webPublicationDate":"2017-10-15T21:00:41Z","webTitle":"Exocet missile: how the sinking of HMS Sheffield made it famous","webUrl":"https://www.theguardian.com/uk-news/2017/oct/15/exocet-missile-how-sinking-hms-sheffield-made-famous","apiUrl":"https://content.guardianapis.com/uk-news/2017/oct/15/exocet-missile-how-sinking-hms-sheffield-made-famous","isHosted":false}]}}
