{
"response": {
"status": "ok",
"userTier": "developer",
"total": 221714,
"startIndex": 1,
"pageSize": 10,
"currentPage": 1,
"pages": 22172,
"orderBy": "newest",
"results": [
{
"id": "politics/2017/dec/09/boris-johnson-iran-nazanin-zaghari-ratcliffe",
"type": "article",
"sectionId": "politics",
"sectionName": "Politics",
"webPublicationDate": "2017-12-09T12:22:19Z",
"webTitle": "Boris Johnson arrives in Iran to discuss release of Zaghari-Ratcliffe",
"webUrl": "https://www.theguardian.com/politics/2017/dec/09/boris-johnson-iran-nazanin-zaghari-ratcliffe",
"apiUrl": "https://content.guardianapis.com/politics/2017/dec/09/boris-johnson-iran-nazanin-zaghari-ratcliffe",
"isHosted": false,
"pillarId": "pillar/news",
"pillarName": "News"
},
{
"id": "commentisfree/2017/dec/09/black-lives-matter-political-tories-lessons-ethnic-minority-electorate",
"type": "article",
"sectionId": "commentisfree",
"sectionName": "Opinion",
"webPublicationDate": "2017-12-09T10:00:04Z",
"webTitle": "Wake up, politicians: here’s the proof that black votes matter | Simon Woolley",
"webUrl": "https://www.theguardian.com/commentisfree/2017/dec/09/black-lives-matter-political-tories-lessons-ethnic-minority-electorate",
"apiUrl": "https://content.guardianapis.com/commentisfree/2017/dec/09/black-lives-matter-political-tories-lessons-ethnic-minority-electorate",
"isHosted": false,
"pillarId": "pillar/opinion",
"pillarName": "Opinion"
},
{
"id": "commentisfree/2017/dec/09/parliament-palace-booze-sex-modern-westminster-mps-sober",
"type": "article",
"sectionId": "commentisfree",
"sectionName": "Opinion",
"webPublicationDate": "2017-12-09T06:00:16Z",
"webTitle": "Parliament’s palace of booze and sex seems bad, but it has been a lot worse | Ian Jack",
"webUrl": "https://www.theguardian.com/commentisfree/2017/dec/09/parliament-palace-booze-sex-modern-westminster-mps-sober",
"apiUrl": "https://content.guardianapis.com/commentisfree/2017/dec/09/parliament-palace-booze-sex-modern-westminster-mps-sober",
"isHosted": false,
"pillarId": "pillar/opinion",
"pillarName": "Opinion"
},
{
"id": "politics/2017/dec/08/uk-cabinet-soon-to-hold-debate-about-ultimate-brexit-aims-sources-say",
"type": "article",
"sectionId": "politics",
"sectionName": "Politics",
"webPublicationDate": "2017-12-08T19:44:12Z",
"webTitle": "Theresa May secures Tory goodwill but preparations for next battle begin",
"webUrl": "https://www.theguardian.com/politics/2017/dec/08/uk-cabinet-soon-to-hold-debate-about-ultimate-brexit-aims-sources-say",
"apiUrl": "https://content.guardianapis.com/politics/2017/dec/08/uk-cabinet-soon-to-hold-debate-about-ultimate-brexit-aims-sources-say",
"isHosted": false,
"pillarId": "pillar/news",
"pillarName": "News"
},
{
"id": "politics/2017/dec/08/tories-welcome-mays-brexit-deal-but-eu-warns-of-trade-talk-delays",
"type": "article",
"sectionId": "politics",
"sectionName": "Politics",
"webPublicationDate": "2017-12-08T19:30:20Z",
"webTitle": "Tories welcome May's Brexit deal but EU warns of trade talk delays",
"webUrl": "https://www.theguardian.com/politics/2017/dec/08/tories-welcome-mays-brexit-deal-but-eu-warns-of-trade-talk-delays",
"apiUrl": "https://content.guardianapis.com/politics/2017/dec/08/tories-welcome-mays-brexit-deal-but-eu-warns-of-trade-talk-delays",
"isHosted": false,
"pillarId": "pillar/news",
"pillarName": "News"
},
{
"id": "politics/2017/dec/08/theresa-may-orders-ministers-to-cool-public-dispute-over-defence",
"type": "article",
"sectionId": "politics",
"sectionName": "Politics",
"webPublicationDate": "2017-12-08T19:30:13Z",
"webTitle": "Theresa May orders ministers to cool public dispute over defence",
"webUrl": "https://www.theguardian.com/politics/2017/dec/08/theresa-may-orders-ministers-to-cool-public-dispute-over-defence",
"apiUrl": "https://content.guardianapis.com/politics/2017/dec/08/theresa-may-orders-ministers-to-cool-public-dispute-over-defence",
"isHosted": false,
"pillarId": "pillar/news",
"pillarName": "News"
},
{
"id": "commentisfree/2017/dec/08/theresa-may-eu-deal-brexit-hard-border-ireland",
"type": "article",
"sectionId": "commentisfree",
"sectionName": "Opinion",
"webPublicationDate": "2017-12-08T19:25:02Z",
"webTitle": "Theresa May’s EU deal will postpone the pain of Brexit, but won’t prevent it | Jonathan Freedland",
"webUrl": "https://www.theguardian.com/commentisfree/2017/dec/08/theresa-may-eu-deal-brexit-hard-border-ireland",
"apiUrl": "https://content.guardianapis.com/commentisfree/2017/dec/08/theresa-may-eu-deal-brexit-hard-border-ireland",
"isHosted": false,
"pillarId": "pillar/opinion",
"pillarName": "Opinion"
},
{
"id": "politics/live/2017/dec/08/brexit-border-eu-theresa-may-juncker-tusk-markets-live",
"type": "liveblog",
"sectionId": "politics",
"sectionName": "Politics",
"webPublicationDate": "2017-12-08T19:15:51Z",
"webTitle": "Brexit: no transition deal for Gibraltar, EU officials confirm – as it happened",
"webUrl": "https://www.theguardian.com/politics/live/2017/dec/08/brexit-border-eu-theresa-may-juncker-tusk-markets-live",
"apiUrl": "https://content.guardianapis.com/politics/live/2017/dec/08/brexit-border-eu-theresa-may-juncker-tusk-markets-live",
"isHosted": false,
"pillarId": "pillar/news",
"pillarName": "News"
},
{
"id": "commentisfree/2017/dec/08/the-guardian-view-on-brexit-divorce-tories-divided",
"type": "article",
"sectionId": "commentisfree",
"sectionName": "Opinion",
"webPublicationDate": "2017-12-08T19:07:03Z",
"webTitle": "The Guardian view on Brexit divorce: Tories divided | Editorial",
"webUrl": "https://www.theguardian.com/commentisfree/2017/dec/08/the-guardian-view-on-brexit-divorce-tories-divided",
"apiUrl": "https://content.guardianapis.com/commentisfree/2017/dec/08/the-guardian-view-on-brexit-divorce-tories-divided",
"isHosted": false,
"pillarId": "pillar/opinion",
"pillarName": "Opinion"
},
{
"id": "society/2017/dec/08/heres-how-we-can-fix-britains-housing-crisis",
"type": "article",
"sectionId": "society",
"sectionName": "Society",
"webPublicationDate": "2017-12-08T19:06:27Z",
"webTitle": "Here’s how we can fix Britain’s housing crisis | Letters",
"webUrl": "https://www.theguardian.com/society/2017/dec/08/heres-how-we-can-fix-britains-housing-crisis",
"apiUrl": "https://content.guardianapis.com/society/2017/dec/08/heres-how-we-can-fix-britains-housing-crisis",
"isHosted": false,
"pillarId": "pillar/news",
"pillarName": "News"
}
]
}
}
