{"response":{"status":"ok","userTier":"developer","total":2306108,"startIndex":1,"pageSize":10,"currentPage":1,"pages":230611,"orderBy":"newest","results":[{"id":"football/live/2021/nov/05/eddie-howe-set-for-newcastle-manchester-derby-buildup-and-more-weekend-football-countdown-live","type":"liveblog","sectionId":"football","sectionName":"Football","webPublicationDate":"2021-11-05T16:28:48Z","webTitle":"Howe set for Newcastle, Al-Sadd reach Xavi Barça deal: football countdown – live!","webUrl":"https://www.theguardian.com/football/live/2021/nov/05/eddie-howe-set-for-newcastle-manchester-derby-buildup-and-more-weekend-football-countdown-live","apiUrl":"https://content.guardianapis.com/football/live/2021/nov/05/eddie-howe-set-for-newcastle-manchester-derby-buildup-and-more-weekend-football-countdown-live","isHosted":false,"pillarId":"pillar/sport","pillarName":"Sport"},{"id":"uk-news/2021/nov/05/stephen-port-victim-inquests-hear-of-met-police-institutional-homophobia","type":"article","sectionId":"uk-news","sectionName":"UK news","webPublicationDate":"2021-11-05T16:26:59Z","webTitle":"Stephen Port victim inquests hear of Met ‘institutional homophobia’","webUrl":"https://www.theguardian.com/uk-news/2021/nov/05/stephen-port-victim-inquests-hear-of-met-police-institutional-homophobia","apiUrl":"https://content.guardianapis.com/uk-news/2021/nov/05/stephen-port-victim-inquests-hear-of-met-police-institutional-homophobia","isHosted":false,"pillarId":"pillar/news","pillarName":"News"},{"id":"environment/live/2021/nov/05/cop26-richest-1-will-account-for-16-of-total-emissions-by-2030-day-five-live","type":"liveblog","sectionId":"environment","sectionName":"Environment","webPublicationDate":"2021-11-05T16:24:39Z","webTitle":"Cop26: Conference is a ‘PR event’, says Greta Thunberg – day five live","webUrl":"https://www.theguardian.com/environment/live/2021/nov/05/cop26-richest-1-will-account-for-16-of-total-emissions-by-2030-day-five-live","apiUrl":"https://content.guardianapis.com/environment/live/2021/nov/05/cop26-richest-1-will-account-for-16-of-total-emissions-by-2030-day-five-live","isHosted":false,"pillarId":"pillar/news","pillarName":"News"},{"id":"politics/live/2021/nov/05/uk-politics-live-government-sleaze-boris-johnson-owen-paterson","type":"liveblog","sectionId":"politics","sectionName":"Politics","webPublicationDate":"2021-11-05T16:24:17Z","webTitle":"UK politics live: Labour demands investigation over Boris Johnson’s free luxury holiday","webUrl":"https://www.theguardian.com/politics/live/2021/nov/05/uk-politics-live-government-sleaze-boris-johnson-owen-paterson","apiUrl":"https://content.guardianapis.com/politics/live/2021/nov/05/uk-politics-live-government-sleaze-boris-johnson-owen-paterson","isHosted":false,"pillarId":"pillar/news","pillarName":"News"},{"id":"uk-news/2021/nov/05/ministers-resist-calls-for-inquiry-into-hospital-workers-attacks-on-female-corpses","type":"article","sectionId":"uk-news","sectionName":"UK news","webPublicationDate":"2021-11-05T16:21:50Z","webTitle":"Ministers resist calls for inquiry into hospital worker’s attacks on female corpses","webUrl":"https://www.theguardian.com/uk-news/2021/nov/05/ministers-resist-calls-for-inquiry-into-hospital-workers-attacks-on-female-corpses","apiUrl":"https://content.guardianapis.com/uk-news/2021/nov/05/ministers-resist-calls-for-inquiry-into-hospital-workers-attacks-on-female-corpses","isHosted":false,"pillarId":"pillar/news","pillarName":"News"},{"id":"us-news/live/2021/nov/05/us-politics-congress-house-democrats-joe-biden-infrastructure-reconciliation-live","type":"liveblog","sectionId":"us-news","sectionName":"US news","webPublicationDate":"2021-11-05T16:15:32Z","webTitle":"Biden urges ‘every House member’ to support agenda ‘right now’ as crucial vote nears – live","webUrl":"https://www.theguardian.com/us-news/live/2021/nov/05/us-politics-congress-house-democrats-joe-biden-infrastructure-reconciliation-live","apiUrl":"https://content.guardianapis.com/us-news/live/2021/nov/05/us-politics-congress-house-democrats-joe-biden-infrastructure-reconciliation-live","isHosted":false,"pillarId":"pillar/news","pillarName":"News"},{"id":"books/2021/nov/05/sally-rooney-novels-pulled-from-israeli-bookstores-after-translation-boycott","type":"article","sectionId":"books","sectionName":"Books","webPublicationDate":"2021-11-05T16:14:29Z","webTitle":"Sally Rooney novels pulled from Israeli bookstores after translation boycott","webUrl":"https://www.theguardian.com/books/2021/nov/05/sally-rooney-novels-pulled-from-israeli-bookstores-after-translation-boycott","apiUrl":"https://content.guardianapis.com/books/2021/nov/05/sally-rooney-novels-pulled-from-israeli-bookstores-after-translation-boycott","isHosted":false,"pillarId":"pillar/arts","pillarName":"Arts"},{"id":"environment/2021/nov/05/cop26-mothers-from-across-globe-demand-action-on-air-pollution","type":"article","sectionId":"environment","sectionName":"Environment","webPublicationDate":"2021-11-05T16:11:14Z","webTitle":"Cop26: mothers from across globe demand action on air pollution","webUrl":"https://www.theguardian.com/environment/2021/nov/05/cop26-mothers-from-across-globe-demand-action-on-air-pollution","apiUrl":"https://content.guardianapis.com/environment/2021/nov/05/cop26-mothers-from-across-globe-demand-action-on-air-pollution","isHosted":false,"pillarId":"pillar/news","pillarName":"News"},{"id":"business/2021/nov/05/ba-owner-warns-of-3bn-loss-as-it-pins-hopes-on-transatlantic-travel-revival","type":"article","sectionId":"business","sectionName":"Business","webPublicationDate":"2021-11-05T16:08:19Z","webTitle":"BA owner says US flights nearly full but warns of €3bn loss","webUrl":"https://www.theguardian.com/business/2021/nov/05/ba-owner-warns-of-3bn-loss-as-it-pins-hopes-on-transatlantic-travel-revival","apiUrl":"https://content.guardianapis.com/business/2021/nov/05/ba-owner-warns-of-3bn-loss-as-it-pins-hopes-on-transatlantic-travel-revival","isHosted":false,"pillarId":"pillar/news","pillarName":"News"},{"id":"football/2021/nov/05/elite-and-impressive-eddie-howe-verdict-from-newcastle-graeme-jones","type":"article","sectionId":"football","sectionName":"Football","webPublicationDate":"2021-11-05T16:06:15Z","webTitle":"‘Elite and impressive’: Eddie Howe verdict from Newcastle’s Graeme Jones","webUrl":"https://www.theguardian.com/football/2021/nov/05/elite-and-impressive-eddie-howe-verdict-from-newcastle-graeme-jones","apiUrl":"https://content.guardianapis.com/football/2021/nov/05/elite-and-impressive-eddie-howe-verdict-from-newcastle-graeme-jones","isHosted":false,"pillarId":"pillar/sport","pillarName":"Sport"}]}}
