{
  "response": {
    "status": "ok",
    "userTier": "developer",
    "total": 2164923,
    "startIndex": 1,
    "pageSize": 10,
    "currentPage": 1,
    "pages": 216493,
    "orderBy": "newest",
    "results": [
      {
        "id": "football/live/2020/jan/11/crystal-palace-v-arsenal-premier-league-live",
        "type": "liveblog",
        "sectionId": "football",
        "sectionName": "Football",
        "webPublicationDate": "2020-01-11T13:52:14Z",
        "webTitle": "Crystal Palace v Arsenal: Premier League – live!",
        "webUrl": "https://www.theguardian.com/football/live/2020/jan/11/crystal-palace-v-arsenal-premier-league-live",
        "apiUrl": "https://content.guardianapis.com/football/live/2020/jan/11/crystal-palace-v-arsenal-premier-league-live",
        "fields": {
          "thumbnail": "https://media.guim.co.uk/0109f310815d5e8f08ac8f459e9547be77e82cf9/9_126_2822_1693/500.jpg"
        },
        "isHosted": false,
        "pillarId": "pillar/sport",
        "pillarName": "Sport"
      },
      {
        "id": "world/live/2020/jan/11/iran-plane-crach-tehran-admits-firing-missile-ukrainian-airliner-disastrous-mistake-live-news",
        "type": "liveblog",
        "sectionId": "world",
        "sectionName": "World news",
        "webPublicationDate": "2020-01-11T13:50:08Z",
        "webTitle": "Iran crisis: Tehran admits firing missile at airliner in 'disastrous mistake' – live news",
        "webUrl": "https://www.theguardian.com/world/live/2020/jan/11/iran-plane-crach-tehran-admits-firing-missile-ukrainian-airliner-disastrous-mistake-live-news",
        "apiUrl": "https://content.guardianapis.com/world/live/2020/jan/11/iran-plane-crach-tehran-admits-firing-missile-ukrainian-airliner-disastrous-mistake-live-news",
        "fields": {
          "thumbnail": "https://media.guim.co.uk/e98d64ea3fff874857e4b91284a50103abef1701/963_320_4476_2686/500.jpg"
        },
        "isHosted": false,
        "pillarId": "pillar/news",
        "pillarName": "News"
      },
      {
        "id": "football/live/2020/jan/11/chelsea-v-burnley-manchester-united-v-norwich-and-more-live",
        "type": "liveblog",
        "sectionId": "football",
        "sectionName": "Football",
        "webPublicationDate": "2020-01-11T13:45:07Z",
        "webTitle": "Chelsea v Burnley, Manchester United v Norwich and more – live!",
        "webUrl": "https://www.theguardian.com/football/live/2020/jan/11/chelsea-v-burnley-manchester-united-v-norwich-and-more-live",
        "apiUrl": "https://content.guardianapis.com/football/live/2020/jan/11/chelsea-v-burnley-manchester-united-v-norwich-and-more-live",
        "fields": {
          "thumbnail": "https://media.guim.co.uk/301659b2ee5ea069ca434a85bbfb82508f8f12e1/38_50_2485_1491/500.jpg"
        },
        "isHosted": false,
        "pillarId": "pillar/sport",
        "pillarName": "Sport"
      },
      {
        "id": "environment/2020/jan/11/extinction-rebellion-could-sue-police-listing-extremist-ideology",
        "type": "article",
        "sectionId": "environment",
        "sectionName": "Environment",
        "webPublicationDate": "2020-01-11T13:38:10Z",
        "webTitle": "Extinction Rebellion could sue police over extremist ideology listing",
        "webUrl": "https://www.theguardian.com/environment/2020/jan/11/extinction-rebellion-could-sue-police-listing-extremist-ideology",
        "apiUrl": "https://content.guardianapis.com/environment/2020/jan/11/extinction-rebellion-could-sue-police-listing-extremist-ideology",
        "fields": {
          "thumbnail": "https://media.guim.co.uk/f86f98eda8fce60b3865c9ce15830841a05e6bdb/0_235_3500_2100/500.jpg"
        },
        "isHosted": false,
        "pillarId": "pillar/news",
        "pillarName": "News"
      },
      {
        "id": "world/2020/jan/11/taiwan-re-elects-tsai-ing-wen-as-president-in-clear-message-to-china",
        "type": "article",
        "sectionId": "world",
        "sectionName": "World news",
        "webPublicationDate": "2020-01-11T13:31:52Z",
        "webTitle": "Taiwan re-elects Tsai Ing-Wen as president  in clear message to China",
        "webUrl": "https://www.theguardian.com/world/2020/jan/11/taiwan-re-elects-tsai-ing-wen-as-president-in-clear-message-to-china",
        "apiUrl": "https://content.guardianapis.com/world/2020/jan/11/taiwan-re-elects-tsai-ing-wen-as-president-in-clear-message-to-china",
        "fields": {
          "thumbnail": "https://media.guim.co.uk/f077d3f0287688f9aecd37bdab9124f626006a2f/0_281_2868_1721/500.jpg"
        },
        "isHosted": false,
        "pillarId": "pillar/news",
        "pillarName": "News"
      },
      {
        "id": "society/2020/jan/11/observers-climate-emergency-appeal-passes-850000-pounds",
        "type": "article",
        "sectionId": "society",
        "sectionName": "Society",
        "webPublicationDate": "2020-01-11T13:30:07Z",
        "webTitle": "Guardian and Observer charity appeal passes £850,000 to fight climate emergency",
        "webUrl": "https://www.theguardian.com/society/2020/jan/11/observers-climate-emergency-appeal-passes-850000-pounds",
        "apiUrl": "https://content.guardianapis.com/society/2020/jan/11/observers-climate-emergency-appeal-passes-850000-pounds",
        "fields": {
          "thumbnail": "https://media.guim.co.uk/d16d0dc7062f6b5711c4aa6d41f0183773391d85/0_400_6000_3600/500.jpg"
        },
        "isHosted": false,
        "pillarId": "pillar/news",
        "pillarName": "News"
      },
      {
        "id": "world/2020/jan/11/iran-plane-crash-admission-triggers-international-calls-for-full-investigation",
        "type": "article",
        "sectionId": "world",
        "sectionName": "World news",
        "webPublicationDate": "2020-01-11T13:27:08Z",
        "webTitle": "Iran plane crash admission triggers international calls for full investigation",
        "webUrl": "https://www.theguardian.com/world/2020/jan/11/iran-plane-crash-admission-triggers-international-calls-for-full-investigation",
        "apiUrl": "https://content.guardianapis.com/world/2020/jan/11/iran-plane-crash-admission-triggers-international-calls-for-full-investigation",
        "fields": {
          "thumbnail": "https://media.guim.co.uk/b370b0f470265749bf0c84e1d4f72087ff0ff50d/0_291_8731_5239/500.jpg"
        },
        "isHosted": false,
        "pillarId": "pillar/news",
        "pillarName": "News"
      },
      {
        "id": "politics/2020/jan/11/brexit-deal-eu-may-threaten-to-block-citys-access-to-its-markets",
        "type": "article",
        "sectionId": "politics",
        "sectionName": "Politics",
        "webPublicationDate": "2020-01-11T12:53:11Z",
        "webTitle": "Brexit deal: EU may threaten 'to block' City's access to its markets",
        "webUrl": "https://www.theguardian.com/politics/2020/jan/11/brexit-deal-eu-may-threaten-to-block-citys-access-to-its-markets",
        "apiUrl": "https://content.guardianapis.com/politics/2020/jan/11/brexit-deal-eu-may-threaten-to-block-citys-access-to-its-markets",
        "fields": {
          "thumbnail": "https://media.guim.co.uk/dd87422c12e05835976f5cb052740ae48bb6f534/0_27_2992_1795/500.jpg"
        },
        "isHosted": false,
        "pillarId": "pillar/news",
        "pillarName": "News"
      },
      {
        "id": "money/2020/jan/11/self-employed-what-to-do-about-pensions",
        "type": "article",
        "sectionId": "money",
        "sectionName": "Money",
        "webPublicationDate": "2020-01-11T12:30:06Z",
        "webTitle": "Self-employed? Here's what you should do about pensions",
        "webUrl": "https://www.theguardian.com/money/2020/jan/11/self-employed-what-to-do-about-pensions",
        "apiUrl": "https://content.guardianapis.com/money/2020/jan/11/self-employed-what-to-do-about-pensions",
        "fields": {
          "thumbnail": "https://media.guim.co.uk/10f1e41f2ccd78179b5bb81d10c129eb33ab9820/0_201_4800_2881/500.jpg"
        },
        "isHosted": false,
        "pillarId": "pillar/lifestyle",
        "pillarName": "Lifestyle"
      },
      {
        "id": "sport/live/2020/jan/11/atp-cup-semi-final-australia-v-spain-live",
        "type": "liveblog",
        "sectionId": "sport",
        "sectionName": "Sport",
        "webPublicationDate": "2020-01-11T12:15:11Z",
        "webTitle": "ATP Cup semi-final: Spain beat Australia – as it happened!",
        "webUrl": "https://www.theguardian.com/sport/live/2020/jan/11/atp-cup-semi-final-australia-v-spain-live",
        "apiUrl": "https://content.guardianapis.com/sport/live/2020/jan/11/atp-cup-semi-final-australia-v-spain-live",
        "fields": {
          "thumbnail": "https://media.guim.co.uk/caa65557837e14fd6aaa2db6d8f06afff6e0750d/0_114_4180_2508/500.jpg"
        },
        "isHosted": false,
        "pillarId": "pillar/sport",
        "pillarName": "Sport"
      }
    ]
  }
}