{"response":{ "status":"ok", "userTier":"developer", "total":2031540, "startIndex":1, "pageSize":10, "currentPage":1, "pages":203154, "orderBy":"newest", "results":[{
      "id":"football/live/2018/may/06/championship-clockwatch-cardiff-v-reading-birmingham-v-fulham-live",
      "type":"liveblog",
      "sectionId":"football",
      "sectionName":"Football",
      "webPublicationDate":"2018-05-06T13:05:46Z",
      "webTitle":"Championship clockwatch: Cardiff v Reading, Birmingham v Fulham – live!",
       "webUrl":"https://www.theguardian.com/football/live/2018/may/06/championship-clockwatch-cardiff-v-reading-birmingham-v-fulham-live",
       "apiUrl":"https://content.guardianapis.com/football/live/2018/may/06/championship-clockwatch-cardiff-v-reading-birmingham-v-fulham-live","isHosted":false,"pillarId":"pillar/sport","pillarName":"Sport"},
       {
        "id":"football/live/2018/may/06/manchester-city-v-huddersfield-town-premier-league-live",
        "type":"liveblog",
        "sectionId":"football",
        "sectionName":"Football",
        "webPublicationDate":"2018-05-06T13:05:06Z",
        "webTitle":"Manchester City v Huddersfield Town: Premier League – live!",
        "webUrl":"https://www.theguardian.com/football/live/2018/may/06/manchester-city-v-huddersfield-town-premier-league-live",
        "apiUrl":"https://content.guardianapis.com/football/live/2018/may/06/manchester-city-v-huddersfield-town-premier-league-live",
        "isHosted":false,
        "pillarId":"pillar/sport",
        "pillarName":"Sport"},
        {
          "id":"sport/live/2018/may/06/county-cricket-essex-v-yorkshire-lancashire-v-somerset-and-more-live",
          "type":"liveblog",
          "sectionId":"sport",
          "sectionName":"Sport",
          "webPublicationDate":"2018-05-06T13:01:39Z",
          "webTitle":"County cricket: Essex v Yorkshire, Lancashire v Somerset and more – live!",
           "webUrl":"https://www.theguardian.com/sport/live/2018/may/06/county-cricket-essex-v-yorkshire-lancashire-v-somerset-and-more-live",
           "apiUrl":"https://content.guardianapis.com/sport/live/2018/may/06/county-cricket-essex-v-yorkshire-lancashire-v-somerset-and-more-live",
           "isHosted":false,
           "pillarId":"pillar/sport",
           "pillarName":"Sport"},
           {
            "id":"media/media-blog/2018/may/06/windrush-scandal-racism-papers",
            "type":"article",
            "sectionId":"media",
            "sectionName":"Media",
            "webPublicationDate":"2018-05-06T13:00:21Z",
            "webTitle":"The Windrush scandal was about racism – why didn’t the papers say so? | Hugh Muir",
            "webUrl":"https://www.theguardian.com/media/media-blog/2018/may/06/windrush-scandal-racism-papers",
            "apiUrl":"https://content.guardianapis.com/media/media-blog/2018/may/06/windrush-scandal-racism-papers",
            "isHosted":false,
            "pillarId":"pillar/news",
            "pillarName":"News"},
            {
              "id":"world/2018/may/06/russian-police-release-opposition-leader-alexei-navalny",
              "type":"article",
              "sectionId":"world",
              "sectionName":"World news",
              "webPublicationDate":"2018-05-06T12:57:16Z",
              "webTitle":"Russian police release opposition leader Alexei Navalny",
              "webUrl":"https://www.theguardian.com/world/2018/may/06/russian-police-release-opposition-leader-alexei-navalny",
              "apiUrl":"https://content.guardianapis.com/world/2018/may/06/russian-police-release-opposition-leader-alexei-navalny",
              "isHosted":false,
              "pillarId":"pillar/news",
              "pillarName":"News"},
              {
                "id":"politics/2018/may/06/justine-greening-warns-young-voters-wont-forgive-damaging-brexit-deal",
                "type":"article",
                "sectionId":"politics",
                "sectionName":"Politics",
                "webPublicationDate":"2018-05-06T12:53:00Z",
                "webTitle":"Greening warns young voters won't forgive damaging Brexit deal",
                "webUrl":"https://www.theguardian.com/politics/2018/may/06/justine-greening-warns-young-voters-wont-forgive-damaging-brexit-deal",
                "apiUrl":"https://content.guardianapis.com/politics/2018/may/06/justine-greening-warns-young-voters-wont-forgive-damaging-brexit-deal",
                "isHosted":false,
                "pillarId":"pillar/news",
                "pillarName":"News"},
                {
                  "id":"sport/2018/may/06/tony-bellew-targets-tyson-fury-david-haye-ponders-future",
                  "type":"article",
                  "sectionId":"sport",
                  "sectionName":"Sport",
                  "webPublicationDate":"2018-05-06T12:38:38Z",
                  "webTitle":"Tony Bellew targets Tyson Fury while David Haye ponders his future | Kevin Mitchell",
                  "webUrl":"https://www.theguardian.com/sport/2018/may/06/tony-bellew-targets-tyson-fury-david-haye-ponders-future",
                  "apiUrl":"https://content.guardianapis.com/sport/2018/may/06/tony-bellew-targets-tyson-fury-david-haye-ponders-future",
                  "isHosted":false,
                  "pillarId":"pillar/sport",
                  "pillarName":"Sport"},
                  {
                    "id":"uk-news/2018/may/06/man-20-killed-in-liverpool-city-centre-stabbing",
                    "type":"article",
                    "sectionId":"uk-news",
                    "sectionName":"UK news",
                    "webPublicationDate":"2018-05-06T12:13:45Z",
                    "webTitle":"Man, 20, killed in Liverpool city centre stabbing",
                      "webUrl":"https://www.theguardian.com/uk-news/2018/may/06/man-20-killed-in-liverpool-city-centre-stabbing",
                      "apiUrl":"https://content.guardianapis.com/uk-news/2018/may/06/man-20-killed-in-liverpool-city-centre-stabbing",
                      "isHosted":false,
                      "pillarId":"pillar/news",
                      "pillarName":"News"},
                      {
                      "id":"music/2018/may/06/blossoms-review-the-plaza-stockport",
                      "type":"article",
                      "sectionId":"music",
                      "sectionName":"Music",
                      "webPublicationDate":"2018-05-06T11:43:26Z",
                      "webTitle":"Blossoms review – homecoming is the stuff of dreams",
                      "webUrl":"https://www.theguardian.com/music/2018/may/06/blossoms-review-the-plaza-stockport",
                      "apiUrl":"https://content.guardianapis.com/music/2018/may/06/blossoms-review-the-plaza-stockport",
                      "isHosted":false,
                      "pillarId":"pillar/arts",
                      "pillarName":"Arts"},
                      {
                        "id":"uk-news/2018/may/06/sunny-afternoon-temperatures-soar-across-britain",
                        "type":"article",
                        "sectionId":"uk-news",
                        "sectionName":"UK news",
                        "webPublicationDate":"2018-05-06T11:13:55Z",
                        "webTitle":"Sunny afternoon: temperatures soar across Britain",
                        "webUrl":"https://www.theguardian.com/uk-news/2018/may/06/sunny-afternoon-temperatures-soar-across-britain",
                        "apiUrl":"https://content.guardianapis.com/uk-news/2018/may/06/sunny-afternoon-temperatures-soar-across-britain",
                        "isHosted":false,
                        "pillarId":"pillar/news",
                        "pillarName":"News"}]}}
